%!PS-Adobe-3.0 EPSF-3.0
%%Creator: EpsGraphics2D 0.9.0 by Paul Mutton, http://www.jibble.org/
%%Title: GeoGebra, http://www.geogebra.at
%%CreationDate: Sun Jun 04 16:00:46 CEST 2006
%%BoundingBox: 0 0 340 190
%%DocumentData: Clean7Bit
%%DocumentProcessColors: Black
%%ColorUsage: Color
%%Origin: 0 0
%%Pages: 1
%%Page: 1 1
%%EndComments

gsave
-0.0 190.0 translate
1.0 setlinewidth
10.0 setmiterlimit
0 setlinejoin
2 setlinecap
[ ] 0 setdash
gsave
newpath
0.0 -0.0 moveto
340.15747 -0.0 lineto
340.15747 -190.33531 lineto
0.0 -190.33531 lineto
0.0 -0.0 lineto
closepath
clip
newpath
1.0 1.0 1.0 setrgbcolor
newpath
0.0 -0.0 moveto
340.15747 -0.0 lineto
340.15747 -190.33531 lineto
0.0 -190.33531 lineto
0.0 -0.0 lineto
closepath
fill
newpath
0.7529412 0.7529412 0.7529412 setrgbcolor
1.0 setlinewidth
10.0 setmiterlimit
1 setlinejoin
0 setlinecap
[ 5.0 4.0 ] 0 setdash
newpath
5.4313802E-15 -0.0 moveto
5.4313802E-15 -190.33531 lineto
stroke
newpath
newpath
14.173228 -0.0 moveto
14.173228 -190.33531 lineto
stroke
newpath
newpath
28.346457 -0.0 moveto
28.346457 -190.33531 lineto
stroke
newpath
newpath
42.519684 -0.0 moveto
42.519684 -190.33531 lineto
stroke
newpath
newpath
56.692913 -0.0 moveto
56.692913 -190.33531 lineto
stroke
newpath
newpath
70.86614 -0.0 moveto
70.86614 -190.33531 lineto
stroke
newpath
newpath
85.03937 -0.0 moveto
85.03937 -190.33531 lineto
stroke
newpath
newpath
99.2126 -0.0 moveto
99.2126 -190.33531 lineto
stroke
newpath
newpath
113.385826 -0.0 moveto
113.385826 -190.33531 lineto
stroke
newpath
newpath
127.55905 -0.0 moveto
127.55905 -190.33531 lineto
stroke
newpath
newpath
141.73228 -0.0 moveto
141.73228 -190.33531 lineto
stroke
newpath
newpath
155.9055 -0.0 moveto
155.9055 -190.33531 lineto
stroke
newpath
newpath
170.07874 -0.0 moveto
170.07874 -190.33531 lineto
stroke
newpath
newpath
184.25197 -0.0 moveto
184.25197 -190.33531 lineto
stroke
newpath
newpath
198.4252 -0.0 moveto
198.4252 -190.33531 lineto
stroke
newpath
newpath
212.59842 -0.0 moveto
212.59842 -190.33531 lineto
stroke
newpath
newpath
226.77165 -0.0 moveto
226.77165 -190.33531 lineto
stroke
newpath
newpath
240.94489 -0.0 moveto
240.94489 -190.33531 lineto
stroke
newpath
newpath
255.1181 -0.0 moveto
255.1181 -190.33531 lineto
stroke
newpath
newpath
269.29132 -0.0 moveto
269.29132 -190.33531 lineto
stroke
newpath
newpath
283.46457 -0.0 moveto
283.46457 -190.33531 lineto
stroke
newpath
newpath
297.6378 -0.0 moveto
297.6378 -190.33531 lineto
stroke
newpath
newpath
311.811 -0.0 moveto
311.811 -190.33531 lineto
stroke
newpath
newpath
325.98425 -0.0 moveto
325.98425 -190.33531 lineto
stroke
newpath
newpath
0.0 -0.9792818 moveto
340.15747 -0.9792818 lineto
stroke
newpath
newpath
0.0 -13.964072 moveto
340.15747 -13.964072 lineto
stroke
newpath
newpath
0.0 -26.948862 moveto
340.15747 -26.948862 lineto
stroke
newpath
newpath
0.0 -39.933655 moveto
340.15747 -39.933655 lineto
stroke
newpath
newpath
0.0 -52.91844 moveto
340.15747 -52.91844 lineto
stroke
newpath
newpath
0.0 -65.90323 moveto
340.15747 -65.90323 lineto
stroke
newpath
newpath
0.0 -78.88802 moveto
340.15747 -78.88802 lineto
stroke
newpath
newpath
0.0 -91.87281 moveto
340.15747 -91.87281 lineto
stroke
newpath
newpath
0.0 -104.857605 moveto
340.15747 -104.857605 lineto
stroke
newpath
newpath
0.0 -117.8424 moveto
340.15747 -117.8424 lineto
stroke
newpath
newpath
0.0 -130.82718 moveto
340.15747 -130.82718 lineto
stroke
newpath
newpath
0.0 -143.81198 moveto
340.15747 -143.81198 lineto
stroke
newpath
newpath
0.0 -156.79677 moveto
340.15747 -156.79677 lineto
stroke
newpath
newpath
0.0 -169.78156 moveto
340.15747 -169.78156 lineto
stroke
newpath
newpath
0.0 -182.76634 moveto
340.15747 -182.76634 lineto
stroke
newpath
0.2509804 0.2509804 0.2509804 setrgbcolor
1.0 setlinewidth
10.0 setmiterlimit
1 setlinejoin
1 setlinecap
[ ] 0 setdash
newpath
0.0 -78.88802 moveto
0.0 -80.41682 lineto
stroke
newpath
newpath
30.08626 -83.11643 moveto
30.08626 -82.84172 lineto
31.746439 -82.84172 lineto
31.746439 -83.11643 lineto
30.08626 -83.11643 lineto
closepath
33.46223 -84.08387 moveto
33.46223 -83.30156 lineto
32.22008 -83.30156 lineto
32.22008 -83.02088 lineto
33.46223 -81.3189 lineto
33.808598 -81.3189 lineto
33.808598 -83.00296 lineto
34.178856 -83.00296 lineto
34.178856 -83.30156 lineto
33.808598 -83.30156 lineto
33.808598 -84.08387 lineto
33.46223 -84.08387 lineto
closepath
32.578396 -83.00296 moveto
33.48612 -83.00296 lineto
33.48612 -81.77276 lineto
32.578396 -83.00296 lineto
closepath
fill
newpath
newpath
28.346457 -78.88802 moveto
28.346457 -80.41682 lineto
stroke
newpath
newpath
14.173228 -79.65242 moveto
14.173228 -80.03462 lineto
stroke
newpath
newpath
58.36902 -83.11643 moveto
58.36902 -82.84172 lineto
60.029198 -82.84172 lineto
60.029198 -83.11643 lineto
58.36902 -83.11643 lineto
closepath
60.69394 -84.065956 moveto
60.69394 -83.71959 lineto
60.9567 -83.8231 61.163727 -83.874855 61.315014 -83.874855 curveto
61.49019 -83.874855 61.63351 -83.8241 61.744987 -83.72257 curveto
61.856464 -83.62105 61.9122 -83.48868 61.9122 -83.32545 curveto
61.9122 -82.93529 61.639484 -82.740204 61.094055 -82.740204 curveto
60.95073 -82.740204 lineto
60.95073 -82.49535 lineto
61.076138 -82.48938 lineto
61.589718 -82.48938 61.846508 -82.31023 61.846508 -81.95191 curveto
61.846508 -81.66925 61.677307 -81.527916 61.3389 -81.527916 curveto
61.15576 -81.527916 60.95272 -81.57967 60.72977 -81.68318 curveto
60.72977 -81.3607 lineto
60.94874 -81.28904 61.161736 -81.253204 61.36876 -81.253204 curveto
61.930115 -81.253204 62.210793 -81.4662 62.210793 -81.8922 curveto
62.210793 -82.21866 62.01969 -82.44957 61.637493 -82.58493 curveto
62.083393 -82.688446 62.306343 -82.9333 62.306343 -83.31947 curveto
62.306343 -83.578255 62.21975 -83.78229 62.046566 -83.93159 curveto
61.873383 -84.08089 61.637493 -84.15553 61.3389 -84.15553 curveto
61.16771 -84.15553 60.95272 -84.12567 60.69394 -84.065956 curveto
closepath
fill
newpath
newpath
56.692913 -78.88802 moveto
56.692913 -80.41682 lineto
stroke
newpath
newpath
42.519684 -79.65242 moveto
42.519684 -80.03462 lineto
stroke
newpath
newpath
86.65177 -83.11643 moveto
86.65177 -82.84172 lineto
88.31195 -82.84172 lineto
88.31195 -83.11643 lineto
86.65177 -83.11643 lineto
closepath
88.90504 -84.08387 moveto
88.90504 -83.76139 lineto
89.01253 -83.510574 89.22951 -83.237854 89.55597 -82.943245 curveto
89.764984 -82.752144 lineto
90.035706 -82.50929 90.17107 -82.26643 90.17107 -82.023575 curveto
90.17107 -81.87229 90.12528 -81.751854 90.033714 -81.66228 curveto
89.94215 -81.5727 89.81475 -81.527916 89.65152 -81.527916 curveto
89.46042 -81.527916 89.23547 -81.60157 88.97669 -81.74887 curveto
88.97669 -81.42639 lineto
89.21955 -81.310936 89.46241 -81.253204 89.70526 -81.253204 curveto
89.96404 -81.253204 90.172066 -81.322876 90.32932 -81.46222 curveto
90.48658 -81.60156 90.56521 -81.78669 90.56521 -82.01761 curveto
90.56521 -82.18084 90.5254 -82.32715 90.44578 -82.456535 curveto
90.36615 -82.58593 90.21885 -82.742195 90.00386 -82.92533 curveto
89.860535 -83.04477 lineto
89.565926 -83.295586 89.39672 -83.53446 89.35292 -83.76139 curveto
90.547295 -83.76139 lineto
90.547295 -84.08387 lineto
88.90504 -84.08387 lineto
closepath
fill
newpath
newpath
85.03937 -78.88802 moveto
85.03937 -80.41682 lineto
stroke
newpath
newpath
70.86614 -79.65242 moveto
70.86614 -80.03462 lineto
stroke
newpath
newpath
114.93453 -83.11643 moveto
114.93453 -82.84172 lineto
116.59471 -82.84172 lineto
116.59471 -83.11643 lineto
114.93453 -83.11643 lineto
closepath
117.44458 -84.08387 moveto
117.44458 -83.809166 lineto
117.99996 -83.809166 lineto
117.99996 -81.62943 lineto
117.44458 -81.766785 lineto
117.44458 -81.48014 lineto
118.37022 -81.253204 lineto
118.37022 -83.809166 lineto
118.91963 -83.809166 lineto
118.91963 -84.08387 lineto
117.44458 -84.08387 lineto
closepath
fill
newpath
newpath
113.385826 -78.88802 moveto
113.385826 -80.41682 lineto
stroke
newpath
newpath
99.2126 -79.65242 moveto
99.2126 -80.03462 lineto
stroke
newpath
newpath
144.90732 -84.15553 moveto
144.62068 -84.15553 144.38977 -84.021164 144.21458 -83.75243 curveto
144.03941 -83.4837 143.95183 -83.132355 143.95183 -82.6984 curveto
143.95183 -82.26444 144.0404 -81.915085 144.21758 -81.65034 curveto
144.39474 -81.38558 144.62863 -81.253204 144.91927 -81.253204 curveto
145.20592 -81.253204 145.43782 -81.38558 145.61499 -81.65034 curveto
145.79216 -81.915085 145.88074 -82.26245 145.88074 -82.69243 curveto
145.88074 -83.13833 145.79216 -83.49365 145.61499 -83.75841 curveto
145.43782 -84.023155 145.20193 -84.15553 144.90732 -84.15553 curveto
closepath
144.90732 -83.874855 moveto
145.29749 -83.874855 145.49257 -83.48071 145.49257 -82.69243 curveto
145.49257 -81.916084 145.30147 -81.527916 144.91927 -81.527916 curveto
144.53308 -81.527916 144.34 -81.918076 144.34 -82.6984 curveto
144.34 -83.482704 144.5291 -83.874855 144.90732 -83.874855 curveto
closepath
fill
newpath
newpath
141.73228 -78.88802 moveto
141.73228 -80.41682 lineto
stroke
newpath
newpath
127.55905 -79.65242 moveto
127.55905 -80.03462 lineto
stroke
newpath
newpath
172.94524 -84.08387 moveto
172.94524 -83.809166 lineto
173.50063 -83.809166 lineto
173.50063 -81.62943 lineto
172.94524 -81.766785 lineto
172.94524 -81.48014 lineto
173.87088 -81.253204 lineto
173.87088 -83.809166 lineto
174.42029 -83.809166 lineto
174.42029 -84.08387 lineto
172.94524 -84.08387 lineto
closepath
fill
newpath
newpath
170.07874 -78.88802 moveto
170.07874 -80.41682 lineto
stroke
newpath
newpath
155.9055 -79.65242 moveto
155.9055 -80.03462 lineto
stroke
newpath
newpath
201.35341 -84.08387 moveto
201.35341 -83.76139 lineto
201.4609 -83.510574 201.67787 -83.237854 202.00433 -82.943245 curveto
202.21335 -82.752144 lineto
202.48407 -82.50929 202.61943 -82.26643 202.61943 -82.023575 curveto
202.61943 -81.87229 202.57365 -81.751854 202.48209 -81.66228 curveto
202.39052 -81.5727 202.2631 -81.527916 202.09988 -81.527916 curveto
201.90878 -81.527916 201.68384 -81.60157 201.42506 -81.74887 curveto
201.42506 -81.42639 lineto
201.66792 -81.310936 201.91078 -81.253204 202.15363 -81.253204 curveto
202.41241 -81.253204 202.62044 -81.322876 202.7777 -81.46222 curveto
202.93495 -81.60156 203.01358 -81.78669 203.01358 -82.01761 curveto
203.01358 -82.18084 202.97377 -82.32715 202.89415 -82.456535 curveto
202.81451 -82.58593 202.6672 -82.742195 202.45222 -82.92533 curveto
202.3089 -83.04477 lineto
202.0143 -83.295586 201.8451 -83.53446 201.80128 -83.76139 curveto
202.99567 -83.76139 lineto
202.99567 -84.08387 lineto
201.35341 -84.08387 lineto
closepath
fill
newpath
newpath
198.4252 -78.88802 moveto
198.4252 -80.41682 lineto
stroke
newpath
newpath
184.25197 -79.65242 moveto
184.25197 -80.03462 lineto
stroke
newpath
newpath
229.70782 -84.065956 moveto
229.70782 -83.71959 lineto
229.97058 -83.8231 230.1776 -83.874855 230.32889 -83.874855 curveto
230.50407 -83.874855 230.6474 -83.8241 230.75887 -83.72257 curveto
230.87035 -83.62105 230.92609 -83.48868 230.92609 -83.32545 curveto
230.92609 -82.93529 230.65337 -82.740204 230.10794 -82.740204 curveto
229.96461 -82.740204 lineto
229.96461 -82.49535 lineto
230.09003 -82.48938 lineto
230.6036 -82.48938 230.8604 -82.31023 230.8604 -81.95191 curveto
230.8604 -81.66925 230.6912 -81.527916 230.35278 -81.527916 curveto
230.16965 -81.527916 229.9666 -81.57967 229.74365 -81.68318 curveto
229.74365 -81.3607 lineto
229.96262 -81.28904 230.17561 -81.253204 230.38264 -81.253204 curveto
230.944 -81.253204 231.22467 -81.4662 231.22467 -81.8922 curveto
231.22467 -82.21866 231.03357 -82.44957 230.65138 -82.58493 curveto
231.09727 -82.688446 231.32022 -82.9333 231.32022 -83.31947 curveto
231.32022 -83.578255 231.23363 -83.78229 231.06046 -83.93159 curveto
230.88727 -84.08089 230.65138 -84.15553 230.35278 -84.15553 curveto
230.1816 -84.15553 229.9666 -84.12567 229.70782 -84.065956 curveto
closepath
fill
newpath
newpath
226.77165 -78.88802 moveto
226.77165 -80.41682 lineto
stroke
newpath
newpath
212.59842 -79.65242 moveto
212.59842 -80.03462 lineto
stroke
newpath
newpath
259.04163 -84.08387 moveto
259.04163 -83.30156 lineto
257.79947 -83.30156 lineto
257.79947 -83.02088 lineto
259.04163 -81.3189 lineto
259.388 -81.3189 lineto
259.388 -83.00296 lineto
259.75824 -83.00296 lineto
259.75824 -83.30156 lineto
259.388 -83.30156 lineto
259.388 -84.08387 lineto
259.04163 -84.08387 lineto
closepath
258.15778 -83.00296 moveto
259.06552 -83.00296 lineto
259.06552 -81.77276 lineto
258.15778 -83.00296 lineto
closepath
fill
newpath
newpath
255.1181 -78.88802 moveto
255.1181 -80.41682 lineto
stroke
newpath
newpath
240.94489 -79.65242 moveto
240.94489 -80.03462 lineto
stroke
newpath
newpath
286.35098 -84.09582 moveto
286.35098 -83.767365 lineto
286.53412 -83.83903 286.70728 -83.874855 286.8705 -83.874855 curveto
287.05365 -83.874855 287.197 -83.822105 287.3005 -83.7166 curveto
287.404 -83.6111 287.45575 -83.4628 287.45575 -83.2717 curveto
287.45575 -82.85765 287.17108 -82.65063 286.60178 -82.65063 curveto
286.53412 -82.65063 286.46643 -82.65461 286.39874 -82.66257 curveto
286.39874 -81.3189 lineto
287.79617 -81.3189 lineto
287.79617 -81.64138 lineto
286.72122 -81.64138 lineto
286.72122 -82.36995 lineto
287.07556 -82.36995 287.35223 -82.45156 287.5513 -82.61479 curveto
287.75037 -82.77802 287.8499 -83.00297 287.8499 -83.28961 curveto
287.8499 -83.56034 287.75934 -83.77234 287.5782 -83.92561 curveto
287.39703 -84.078896 287.14523 -84.15553 286.82275 -84.15553 curveto
286.6834 -84.15553 286.52615 -84.13563 286.35098 -84.09582 curveto
closepath
fill
newpath
newpath
283.46457 -78.88802 moveto
283.46457 -80.41682 lineto
stroke
newpath
newpath
269.29132 -79.65242 moveto
269.29132 -80.03462 lineto
stroke
newpath
newpath
314.82483 -82.65063 moveto
315.0 -82.42369 315.22095 -82.31023 315.4877 -82.31023 curveto
315.73056 -82.31023 315.92862 -82.389854 316.0819 -82.5491 curveto
316.2352 -82.70835 316.31183 -82.91339 316.31183 -83.16421 curveto
316.31183 -83.45085 316.22522 -83.68774 316.05203 -83.874855 curveto
315.87885 -84.06197 315.6609 -84.15553 315.39813 -84.15553 curveto
315.09158 -84.15553 314.8527 -84.03211 314.6815 -83.78528 curveto
314.5103 -83.538445 314.4247 -83.198044 314.4247 -82.76409 curveto
314.4247 -82.28634 314.52325 -81.915085 314.7203 -81.65034 curveto
314.9174 -81.38558 315.1951 -81.253204 315.5534 -81.253204 curveto
315.71664 -81.253204 315.92166 -81.28705 316.1685 -81.35473 curveto
316.1685 -81.67721 lineto
315.90973 -81.57768 315.69672 -81.527916 315.5295 -81.527916 curveto
315.05972 -81.527916 314.82483 -81.90215 314.82483 -82.65063 curveto
closepath
315.94156 -83.24781 moveto
315.94156 -83.036804 315.89478 -82.87158 315.80124 -82.752144 curveto
315.70767 -82.632706 315.57727 -82.57299 315.41006 -82.57299 curveto
315.2548 -82.57299 315.12143 -82.62574 315.00995 -82.73125 curveto
314.89847 -82.83675 314.84274 -82.96315 314.84274 -83.11046 curveto
314.84274 -83.34137 314.8955 -83.5265 315.001 -83.66584 curveto
315.1065 -83.80518 315.24683 -83.874855 315.422 -83.874855 curveto
315.58127 -83.874855 315.70767 -83.81812 315.80124 -83.70466 curveto
315.89478 -83.591194 315.94156 -83.43891 315.94156 -83.24781 curveto
closepath
fill
newpath
newpath
311.811 -78.88802 moveto
311.811 -80.41682 lineto
stroke
newpath
newpath
297.6378 -79.65242 moveto
297.6378 -80.03462 lineto
stroke
newpath
newpath
325.98425 -79.65242 moveto
325.98425 -80.03462 lineto
stroke
newpath
newpath
140.9679 -13.964072 moveto
140.5857 -13.964072 lineto
stroke
newpath
newpath
139.031 -25.989561 moveto
139.031 -25.207247 lineto
137.78886 -25.207247 lineto
137.78886 -24.926569 lineto
139.031 -23.224586 lineto
139.37738 -23.224586 lineto
139.37738 -24.908653 lineto
139.74763 -24.908653 lineto
139.74763 -25.207247 lineto
139.37738 -25.207247 lineto
139.37738 -25.989561 lineto
139.031 -25.989561 lineto
closepath
138.14717 -24.908653 moveto
139.0549 -24.908653 lineto
139.0549 -23.678448 lineto
138.14717 -24.908653 lineto
closepath
fill
newpath
newpath
140.20349 -26.948862 moveto
141.73228 -26.948862 lineto
stroke
newpath
newpath
140.9679 -39.933655 moveto
140.5857 -39.933655 lineto
stroke
newpath
newpath
137.9083 -51.979122 moveto
137.9083 -51.65664 lineto
138.0158 -51.40582 138.23277 -51.133106 138.55923 -50.838493 curveto
138.76825 -50.647396 lineto
139.03897 -50.40454 139.17433 -50.161682 139.17433 -49.918827 curveto
139.17433 -49.76754 139.12856 -49.647106 139.03699 -49.55753 curveto
138.94542 -49.46795 138.81801 -49.42316 138.65479 -49.42316 curveto
138.46368 -49.42316 138.23874 -49.496815 137.97997 -49.64412 curveto
137.97997 -49.32164 lineto
138.22281 -49.206184 138.46567 -49.148457 138.70853 -49.148457 curveto
138.9673 -49.148457 139.17532 -49.21813 139.3326 -49.35747 curveto
139.48985 -49.496815 139.56848 -49.681942 139.56848 -49.912853 curveto
139.56848 -50.076088 139.52867 -50.222397 139.44904 -50.351788 curveto
139.36942 -50.48118 139.2221 -50.63744 139.00713 -50.82058 curveto
138.8638 -50.940018 lineto
138.56918 -51.190834 138.39998 -51.429707 138.35619 -51.65664 curveto
139.55057 -51.65664 lineto
139.55057 -51.979122 lineto
137.9083 -51.979122 lineto
closepath
fill
newpath
newpath
140.20349 -52.91844 moveto
141.73228 -52.91844 lineto
stroke
newpath
newpath
140.9679 -65.90323 moveto
140.5857 -65.90323 lineto
stroke
newpath
newpath
138.79213 -78.040344 moveto
138.5055 -78.040344 138.27458 -77.905975 138.0994 -77.637245 curveto
137.92422 -77.36851 137.83664 -77.01716 137.83664 -76.583206 curveto
137.83664 -76.149254 137.92522 -75.7999 138.10239 -75.53515 curveto
138.27956 -75.27039 138.51344 -75.138016 138.80408 -75.138016 curveto
139.09073 -75.138016 139.32263 -75.27039 139.4998 -75.53515 curveto
139.67697 -75.7999 139.76555 -76.14726 139.76555 -76.57723 curveto
139.76555 -77.02313 139.67697 -77.37846 139.4998 -77.64321 curveto
139.32263 -77.90797 139.08675 -78.040344 138.79213 -78.040344 curveto
closepath
138.79213 -77.75967 moveto
139.1823 -77.75967 139.37738 -77.365524 139.37738 -76.57723 curveto
139.37738 -75.80089 139.18628 -75.41272 138.80408 -75.41272 curveto
138.4179 -75.41272 138.22481 -75.80288 138.22481 -76.583206 curveto
138.22481 -77.367516 138.41391 -77.75967 138.79213 -77.75967 curveto
closepath
fill
newpath
newpath
140.20349 -78.88802 moveto
141.73228 -78.88802 lineto
stroke
newpath
newpath
140.9679 -91.87281 moveto
140.5857 -91.87281 lineto
stroke
newpath
newpath
135.5733 -102.9908 moveto
135.5733 -102.716095 lineto
137.23347 -102.716095 lineto
137.23347 -102.9908 lineto
135.5733 -102.9908 lineto
closepath
137.82655 -103.958244 moveto
137.82655 -103.63576 lineto
137.93405 -103.38494 138.15103 -103.11222 138.4775 -102.81761 curveto
138.68651 -102.62652 lineto
138.95723 -102.38366 139.09259 -102.1408 139.09259 -101.89795 curveto
139.09259 -101.74666 139.04681 -101.62623 138.95525 -101.53665 curveto
138.86368 -101.447075 138.73627 -101.40228 138.57304 -101.40228 curveto
138.38194 -101.40228 138.157 -101.47594 137.89822 -101.623245 curveto
137.89822 -101.30076 lineto
138.14108 -101.1853 138.38394 -101.12758 138.62679 -101.12758 curveto
138.88556 -101.12758 139.09358 -101.19725 139.25085 -101.33659 curveto
139.40811 -101.47594 139.48674 -101.661064 139.48674 -101.891975 curveto
139.48674 -102.05521 139.44693 -102.20152 139.3673 -102.33091 curveto
139.28767 -102.4603 139.14037 -102.61656 138.92538 -102.7997 curveto
138.78206 -102.919136 lineto
138.48744 -103.16995 138.31824 -103.40883 138.27444 -103.63576 curveto
139.46883 -103.63576 lineto
139.46883 -103.958244 lineto
137.82655 -103.958244 lineto
closepath
fill
newpath
newpath
140.20349 -104.857605 moveto
141.73228 -104.857605 lineto
stroke
newpath
newpath
140.9679 -117.8424 moveto
140.5857 -117.8424 lineto
stroke
newpath
newpath
135.5733 -128.98036 moveto
135.5733 -128.70566 lineto
137.23347 -128.70566 lineto
137.23347 -128.98036 lineto
135.5733 -128.98036 lineto
closepath
138.94926 -129.9478 moveto
138.94926 -129.16548 lineto
137.70712 -129.16548 lineto
137.70712 -128.88481 lineto
138.94926 -127.18283 lineto
139.29564 -127.18283 lineto
139.29564 -128.8669 lineto
139.6659 -128.8669 lineto
139.6659 -129.16548 lineto
139.29564 -129.16548 lineto
139.29564 -129.9478 lineto
138.94926 -129.9478 lineto
closepath
138.06543 -128.8669 moveto
138.97316 -128.8669 lineto
138.97316 -127.63669 lineto
138.06543 -128.8669 lineto
closepath
fill
newpath
newpath
140.20349 -130.82718 moveto
141.73228 -130.82718 lineto
stroke
newpath
newpath
140.9679 -143.81198 moveto
140.5857 -143.81198 lineto
stroke
newpath
newpath
135.5733 -154.96992 moveto
135.5733 -154.69522 lineto
137.23347 -154.69522 lineto
137.23347 -154.96992 lineto
135.5733 -154.96992 lineto
closepath
138.16696 -154.50412 moveto
138.34213 -154.27718 138.5631 -154.16371 138.82983 -154.16371 curveto
139.0727 -154.16371 139.27075 -154.24333 139.42403 -154.40259 curveto
139.5773 -154.56184 139.65395 -154.76688 139.65395 -155.0177 curveto
139.65395 -155.30434 139.56735 -155.54123 139.39418 -155.72835 curveto
139.221 -155.91547 139.00302 -156.00902 138.74025 -156.00902 curveto
138.4337 -156.00902 138.19482 -155.8856 138.02364 -155.63876 curveto
137.85245 -155.39192 137.76685 -155.05153 137.76685 -154.61758 curveto
137.76685 -154.13983 137.86539 -153.76859 138.06245 -153.50383 curveto
138.25952 -153.23907 138.5372 -153.1067 138.89552 -153.1067 curveto
139.05875 -153.1067 139.26378 -153.14055 139.51062 -153.20822 curveto
139.51062 -153.5307 lineto
139.25185 -153.43117 139.03885 -153.38141 138.87163 -153.38141 curveto
138.40186 -153.38141 138.16696 -153.75565 138.16696 -154.50412 curveto
closepath
139.28369 -155.1013 moveto
139.28369 -154.89029 139.23691 -154.72507 139.14336 -154.60564 curveto
139.0498 -154.4862 138.91942 -154.42648 138.7522 -154.42648 curveto
138.59694 -154.42648 138.46356 -154.47923 138.35208 -154.58473 curveto
138.24062 -154.69025 138.18488 -154.81665 138.18488 -154.96394 curveto
138.18488 -155.19485 138.23763 -155.37999 138.34312 -155.51933 curveto
138.44862 -155.65868 138.58896 -155.72835 138.76414 -155.72835 curveto
138.9234 -155.72835 139.0498 -155.67162 139.14336 -155.55815 curveto
139.23691 -155.44469 139.28369 -155.2924 139.28369 -155.1013 curveto
closepath
fill
newpath
newpath
140.20349 -156.79677 moveto
141.73228 -156.79677 lineto
stroke
newpath
newpath
140.9679 -169.78156 moveto
140.5857 -169.78156 lineto
stroke
newpath
newpath
135.5733 -180.95947 moveto
135.5733 -180.68477 lineto
137.23347 -180.68477 lineto
137.23347 -180.95947 lineto
135.5733 -180.95947 lineto
closepath
138.38791 -180.42201 moveto
138.11719 -180.2349 137.98183 -180.02786 137.98183 -179.80093 curveto
137.98183 -179.58994 138.05847 -179.41974 138.21175 -179.29034 curveto
138.36502 -179.16095 138.56508 -179.09625 138.81192 -179.09625 curveto
139.03885 -179.09625 139.22298 -179.151 139.36432 -179.26048 curveto
139.50565 -179.36996 139.57631 -179.5143 139.57631 -179.69345 curveto
139.57631 -179.96019 139.40512 -180.20303 139.06273 -180.42201 curveto
139.48076 -180.62506 139.68977 -180.88782 139.68977 -181.2103 curveto
139.68977 -181.44121 139.60219 -181.63033 139.42702 -181.77762 curveto
139.25185 -181.92493 139.0269 -181.99858 138.7522 -181.99858 curveto
138.4775 -181.99858 138.25653 -181.92891 138.08932 -181.78957 curveto
137.9221 -181.65022 137.8385 -181.46907 137.8385 -181.24612 curveto
137.8385 -180.91568 138.02164 -180.64098 138.38791 -180.42201 curveto
closepath
138.8597 -180.30855 moveto
139.1145 -180.13736 139.2419 -179.94824 139.2419 -179.74123 curveto
139.2419 -179.62975 139.1991 -179.54016 139.1135 -179.47249 curveto
139.02791 -179.4048 138.91544 -179.37096 138.7761 -179.37096 curveto
138.64073 -179.37096 138.53024 -179.4048 138.44464 -179.47249 curveto
138.35905 -179.54016 138.31625 -179.62576 138.31625 -179.72928 curveto
138.31625 -179.83278 138.35507 -179.92535 138.43271 -180.00697 curveto
138.51033 -180.0886 138.65266 -180.18912 138.8597 -180.30855 curveto
closepath
138.59096 -180.5713 moveto
138.43967 -180.68677 138.33815 -180.7873 138.28639 -180.8729 curveto
138.23463 -180.95848 138.20876 -181.06499 138.20876 -181.19238 curveto
138.20876 -181.34764 138.25952 -181.47404 138.36104 -181.5716 curveto
138.46255 -181.66914 138.59692 -181.71791 138.76414 -181.71791 curveto
138.9234 -181.71791 139.05379 -181.6761 139.1553 -181.5925 curveto
139.25682 -181.5089 139.30759 -181.4014 139.30759 -181.27002 curveto
139.30759 -181.16252 139.27673 -181.07195 139.21501 -180.99829 curveto
139.1533 -180.92464 139.03088 -180.83408 138.84775 -180.72658 curveto
138.59096 -180.5713 lineto
closepath
fill
newpath
newpath
140.20349 -182.76634 moveto
141.73228 -182.76634 lineto
stroke
newpath
newpath
140.9679 -195.75114 moveto
140.5857 -195.75114 lineto
stroke
newpath
1.0 setlinewidth
10.0 setmiterlimit
1 setlinejoin
1 setlinecap
[ ] 0 setdash
newpath
0.0 -78.88802 moveto
340.15747 -78.88802 lineto
stroke
newpath
newpath
141.73228 -0.0 moveto
141.73228 -190.33531 lineto
stroke
newpath
newpath
339.77527 -78.88802 moveto
338.2465 -77.35922 lineto
stroke
newpath
newpath
339.77527 -78.88802 moveto
338.2465 -80.41682 lineto
stroke
newpath
newpath
141.73228 -0.0 moveto
140.20349 -1.5287976 lineto
stroke
newpath
newpath
141.73228 -0.0 moveto
143.26108 -1.5287976 lineto
stroke
newpath
0.0 0.0 0.0 setrgbcolor
1.0 setlinewidth
10.0 setmiterlimit
1 setlinejoin
1 setlinecap
[ ] 0 setdash
newpath
28.347082 -169.77983 moveto
28.347456 -169.77881 lineto
28.538929 -169.25323 lineto
28.921501 -168.20709 lineto
29.495174 -166.6483 lineto
30.259947 -164.58875 lineto
31.215818 -162.04411 lineto
32.36279 -159.03383 lineto
33.70086 -155.581 lineto
35.23003 -151.71222 lineto
36.950302 -147.45743 lineto
38.86167 -142.84975 lineto
40.96414 -137.92528 lineto
43.257713 -132.72282 lineto
45.742382 -127.28375 lineto
48.41815 -121.65161 lineto
51.28502 -115.8719 lineto
54.342613 -109.99246 lineto
57.40021 -104.400986 lineto
60.457806 -99.09138 lineto
63.5154 -94.0575 lineto
66.573 -89.29327 lineto
69.63059 -84.79255 lineto
72.68819 -80.54925 lineto
75.74578 -76.557236 lineto
78.803375 -72.810425 lineto
81.86097 -69.30269 lineto
83.38977 -67.636566 lineto
85.109665 -65.83084 lineto
87.02067 -63.908478 lineto
89.122765 -61.89428 lineto
91.415955 -59.81466 lineto
93.90025 -57.697414 lineto
96.57565 -55.57144 lineto
99.44215 -53.466454 lineto
102.49974 -51.412655 lineto
105.557335 -49.55058 lineto
108.61493 -47.874104 lineto
111.67252 -46.37713 lineto
114.730125 -45.05354 lineto
117.78772 -43.89722 lineto
120.845314 -42.902073 lineto
123.90291 -42.06197 lineto
126.9605 -41.37081 lineto
130.0181 -40.822487 lineto
133.0757 -40.410877 lineto
136.13329 -40.12988 lineto
139.19089 -39.973377 lineto
142.24847 -39.935265 lineto
145.30608 -40.009426 lineto
148.36368 -40.18975 lineto
151.42126 -40.47013 lineto
154.47887 -40.844456 lineto
157.53645 -41.30661 lineto
160.59406 -41.850483 lineto
163.65164 -42.46997 lineto
166.70924 -43.158955 lineto
169.76685 -43.911327 lineto
172.82443 -44.720978 lineto
175.88203 -45.581795 lineto
178.93962 -46.487667 lineto
181.99722 -47.432484 lineto
185.05481 -48.410133 lineto
188.11241 -49.4145 lineto
191.17 -50.439487 lineto
194.2276 -51.47897 lineto
197.2852 -52.526848 lineto
200.3428 -53.576996 lineto
203.4004 -54.623318 lineto
206.458 -55.65969 lineto
209.5156 -56.68001 lineto
212.57318 -57.678165 lineto
215.63078 -58.648045 lineto
218.68837 -59.583534 lineto
221.74597 -60.478527 lineto
224.80357 -61.326912 lineto
227.86116 -62.122574 lineto
230.91876 -62.859406 lineto
233.97635 -63.531292 lineto
237.03395 -64.13213 lineto
240.09154 -64.65581 lineto
243.14914 -65.0962 lineto
246.20673 -65.44721 lineto
249.26433 -65.70273 lineto
252.32193 -65.856636 lineto
255.37952 -65.90282 lineto
258.4371 -65.835175 lineto
261.49472 -65.64759 lineto
264.5523 -65.333954 lineto
267.6099 -64.88816 lineto
270.6675 -64.304085 lineto
273.7251 -63.575626 lineto
276.78268 -62.69667 lineto
279.84027 -61.661114 lineto
282.8979 -60.462837 lineto
285.95547 -59.09573 lineto
289.01306 -57.553684 lineto
292.07065 -55.83059 lineto
295.12827 -53.920334 lineto
298.18585 -51.816803 lineto
301.24344 -49.51389 lineto
304.30106 -47.005478 lineto
307.35864 -44.285465 lineto
308.88745 -42.844196 lineto
310.60733 -41.156757 lineto
311.87473 -39.933655 lineto
stroke
newpath
0.0 0.0 0.0 setrgbcolor
newpath
29.493053 -169.78156 moveto
29.493053 -170.41481 28.979708 -170.92816 28.346457 -170.92816 curveto
27.713207 -170.92816 27.199858 -170.41481 27.199858 -169.78156 curveto
27.199858 -169.1483 27.713207 -168.63496 28.346457 -168.63496 curveto
28.979708 -168.63496 29.493053 -169.1483 29.493053 -169.78156 curveto
closepath
fill
newpath
0.0 0.0 0.0 setrgbcolor
1.0 setlinewidth
10.0 setmiterlimit
1 setlinejoin
1 setlinecap
[ ] 0 setdash
newpath
29.493053 -169.78156 moveto
29.493053 -170.41481 28.979708 -170.92816 28.346457 -170.92816 curveto
27.713207 -170.92816 27.199858 -170.41481 27.199858 -169.78156 curveto
27.199858 -169.1483 27.713207 -168.63496 28.346457 -168.63496 curveto
28.979708 -168.63496 29.493053 -169.1483 29.493053 -169.78156 curveto
closepath
stroke
newpath
0.0 0.0 0.0 setrgbcolor
newpath
25.422234 -165.37291 moveto
24.854906 -163.93967 lineto
24.29355 -165.37291 lineto
25.422234 -165.37291 lineto
closepath
25.917898 -166.63895 moveto
25.559586 -165.71928 lineto
24.156197 -165.71928 lineto
23.791914 -166.63895 lineto
23.349995 -166.63895 lineto
24.669779 -163.32455 lineto
25.135584 -163.32455 lineto
26.425507 -166.63895 lineto
25.917898 -166.63895 lineto
closepath
fill
newpath
0.0 0.0 0.0 setrgbcolor
newpath
312.9576 -39.933655 moveto
312.9576 -40.566902 312.44427 -41.080254 311.811 -41.080254 curveto
311.17776 -41.080254 310.66443 -40.566902 310.66443 -39.933655 curveto
310.66443 -39.300404 311.17776 -38.787056 311.811 -38.787056 curveto
312.44427 -38.787056 312.9576 -39.300404 312.9576 -39.933655 curveto
closepath
fill
newpath
0.0 0.0 0.0 setrgbcolor
1.0 setlinewidth
10.0 setmiterlimit
1 setlinejoin
1 setlinecap
[ ] 0 setdash
newpath
312.9576 -39.933655 moveto
312.9576 -40.566902 312.44427 -41.080254 311.811 -41.080254 curveto
311.17776 -41.080254 310.66443 -40.566902 310.66443 -39.933655 curveto
310.66443 -39.300404 311.17776 -38.787056 311.811 -38.787056 curveto
312.44427 -38.787056 312.9576 -39.300404 312.9576 -39.933655 curveto
closepath
stroke
newpath
0.0 0.0 0.0 setrgbcolor
newpath
313.8335 -37.455544 moveto
313.8335 -34.14116 lineto
314.69345 -34.14116 lineto
315.0239 -34.14116 315.2777 -34.20386 315.45486 -34.32927 curveto
315.63202 -34.454678 315.7206 -34.63483 315.7206 -34.869724 curveto
315.7206 -35.27183 315.49368 -35.558483 315.03983 -35.729675 curveto
315.58127 -35.892906 315.852 -36.191498 315.852 -36.625454 curveto
315.852 -36.89618 315.76242 -37.102207 315.58325 -37.24354 curveto
315.40408 -37.384876 315.14532 -37.455544 314.80692 -37.455544 curveto
313.8335 -37.455544 lineto
closepath
314.2993 -37.103203 moveto
314.39484 -37.103203 lineto
314.7372 -37.103203 314.96017 -37.081306 315.0637 -37.037514 curveto
315.2588 -36.95789 315.35632 -36.8066 315.35632 -36.58365 curveto
315.35632 -36.384586 315.26773 -36.220364 315.09058 -36.090973 curveto
314.91342 -35.961582 314.69345 -35.896885 314.4307 -35.896885 curveto
314.2993 -35.896885 lineto
314.2993 -37.103203 lineto
closepath
314.2993 -35.598293 moveto
314.4486 -35.598293 lineto
314.69943 -35.598293 314.8935 -35.544548 315.03085 -35.437054 curveto
315.1682 -35.32956 315.23688 -35.17827 315.23688 -34.98319 curveto
315.23688 -34.656727 314.98407 -34.493496 314.47845 -34.493496 curveto
314.2993 -34.493496 lineto
314.2993 -35.598293 lineto
closepath
fill
newpath
grestore
grestore
showpage

%%EOF