verbatimtex
%&latex
\documentclass{article}
\usepackage{amsmath}
\usepackage{fourier}
\begin{document}
etex;

input geometriesyr16;


u:=4.6cm;

beginfig(1);
figure(0,0,4u,4u);
trace grille(1.15) withcolor gris;
marque_p:="croix";
for i=0 upto 4:
	for j=0 upto 4:
		trace segment (u*(i-0.05,j),u*(i+0.05,j));
		trace segment (u*(i,j-0.05),u*(i,j+0.05));
	endfor;
endfor;
label.top(btex $A$ etex,u*(1,2));
label.bot(btex $B$ etex,u*(1,1));
label.bot(btex $C$ etex,u*(2,1));
label.top(btex $D$ etex,u*(2,2));
trace polygone(u*(0,1.5),u*(0.5,2),u*(0.5,1.75),u*(0.75,1.5),u*(1,1.5),u*(0.5,1),u*(0.5,1.25),u*(0.25,1.5));
fin;
endfig;

beginfig(1);
figure(0,0,4u,4u);
trace grille(1.15) withcolor gris;
marque_p:="croix";
for i=0 upto 4:
	for j=0 upto 4:
		trace segment (u*(i-0.05,j),u*(i+0.05,j));
		trace segment (u*(i,j-0.05),u*(i,j+0.05));
	endfor;
endfor;
label.top(btex $A$ etex,u*(1,2));
label.bot(btex $B$ etex,u*(1,1));
label.bot(btex $C$ etex,u*(2,1));
label.top(btex $D$ etex,u*(2,2));
path cc;
cc=arccercle(pp(2,8),pp(2,6),pp(2,7));
trace cc;
trace rotation(cc,pp(2,6),90); 
trace rotation(cc,pp(2,6),180); 
trace rotation(cc,pp(2,6),270); 
fin;
endfig;