%!PS-Adobe-3.0 EPSF-3.0
%%Creator: EpsGraphics2D 0.9.0 by Paul Mutton, http://www.jibble.org/
%%Title: GeoGebra, http://www.geogebra.org
%%CreationDate: Wed Oct 10 12:05:27 CEST 2007
%%BoundingBox: 0 0 383 231
%%DocumentData: Clean7Bit
%%DocumentProcessColors: Black
%%ColorUsage: Color
%%Origin: 0 0
%%Pages: 1
%%Page: 1 1
%%EndComments

gsave
-0.0 231.0 translate
1.0 setlinewidth
10.0 setmiterlimit
0 setlinejoin
2 setlinecap
[ ] 0 setdash
gsave
newpath
0.0 -0.0 moveto
383.24408 -0.0 lineto
383.24408 -231.68504 lineto
0.0 -231.68504 lineto
0.0 -0.0 lineto
closepath
clip
newpath
1.0 1.0 1.0 setrgbcolor
newpath
0.0 -0.0 moveto
383.24408 -0.0 lineto
383.24408 -231.68504 lineto
0.0 -231.68504 lineto
0.0 -0.0 lineto
closepath
fill
newpath
0.7529412 0.7529412 0.7529412 setrgbcolor
1.0 setlinewidth
10.0 setmiterlimit
1 setlinejoin
0 setlinecap
[ 5.0 4.0 ] 0 setdash
newpath
17.763779 -0.0 moveto
17.763779 -231.68504 lineto
stroke
newpath
newpath
17.763779 -0.0 moveto
17.763779 -231.68504 lineto
stroke
newpath
newpath
36.66142 -0.0 moveto
36.66142 -231.68504 lineto
stroke
newpath
newpath
55.559055 -0.0 moveto
55.559055 -231.68504 lineto
stroke
newpath
newpath
74.456696 -0.0 moveto
74.456696 -231.68504 lineto
stroke
newpath
newpath
93.35433 -0.0 moveto
93.35433 -231.68504 lineto
stroke
newpath
newpath
112.25197 -0.0 moveto
112.25197 -231.68504 lineto
stroke
newpath
newpath
131.14961 -0.0 moveto
131.14961 -231.68504 lineto
stroke
newpath
newpath
150.04724 -0.0 moveto
150.04724 -231.68504 lineto
stroke
newpath
newpath
168.94489 -0.0 moveto
168.94489 -231.68504 lineto
stroke
newpath
newpath
187.84251 -0.0 moveto
187.84251 -231.68504 lineto
stroke
newpath
newpath
206.74016 -0.0 moveto
206.74016 -231.68504 lineto
stroke
newpath
newpath
225.6378 -0.0 moveto
225.6378 -231.68504 lineto
stroke
newpath
newpath
244.53543 -0.0 moveto
244.53543 -231.68504 lineto
stroke
newpath
newpath
263.43307 -0.0 moveto
263.43307 -231.68504 lineto
stroke
newpath
newpath
282.33072 -0.0 moveto
282.33072 -231.68504 lineto
stroke
newpath
newpath
301.22833 -0.0 moveto
301.22833 -231.68504 lineto
stroke
newpath
newpath
320.12598 -0.0 moveto
320.12598 -231.68504 lineto
stroke
newpath
newpath
339.02362 -0.0 moveto
339.02362 -231.68504 lineto
stroke
newpath
newpath
357.92126 -0.0 moveto
357.92126 -231.68504 lineto
stroke
newpath
newpath
376.8189 -0.0 moveto
376.8189 -231.68504 lineto
stroke
newpath
newpath
0.0 -9.448819 moveto
383.24408 -9.448819 lineto
stroke
newpath
newpath
0.0 -9.448819 moveto
383.24408 -9.448819 lineto
stroke
newpath
newpath
0.0 -28.346457 moveto
383.24408 -28.346457 lineto
stroke
newpath
newpath
0.0 -47.244095 moveto
383.24408 -47.244095 lineto
stroke
newpath
newpath
0.0 -66.14173 moveto
383.24408 -66.14173 lineto
stroke
newpath
newpath
0.0 -85.03937 moveto
383.24408 -85.03937 lineto
stroke
newpath
newpath
0.0 -103.937004 moveto
383.24408 -103.937004 lineto
stroke
newpath
newpath
0.0 -122.83465 moveto
383.24408 -122.83465 lineto
stroke
newpath
newpath
0.0 -141.73228 moveto
383.24408 -141.73228 lineto
stroke
newpath
newpath
0.0 -160.62993 moveto
383.24408 -160.62993 lineto
stroke
newpath
newpath
0.0 -179.52756 moveto
383.24408 -179.52756 lineto
stroke
newpath
newpath
0.0 -198.4252 moveto
383.24408 -198.4252 lineto
stroke
newpath
newpath
0.0 -217.32283 moveto
383.24408 -217.32283 lineto
stroke
newpath
0.6 0.2 0.0 setrgbcolor
newpath
206.74016 -179.52756 moveto
225.6378 -141.73228 lineto
225.6378 -179.52756 lineto
282.33072 -160.62993 lineto
206.74016 -217.32283 lineto
closepath
fill
newpath
0.6 0.2 0.0 setrgbcolor
newpath
206.74016 -179.52756 moveto
225.6378 -141.73228 lineto
225.6378 -179.52756 lineto
282.33072 -160.62993 lineto
206.74016 -217.32283 lineto
closepath
fill
newpath
0.0 0.0 0.0 setrgbcolor
1.0 setlinewidth
10.0 setmiterlimit
1 setlinejoin
1 setlinecap
[ ] 0 setdash
newpath
0.0 -141.73228 moveto
383.24408 -141.73228 lineto
stroke
newpath
0.6 0.2 0.0 setrgbcolor
1.0 setlinewidth
10.0 setmiterlimit
1 setlinejoin
1 setlinecap
[ ] 0 setdash
newpath
206.74016 -179.52756 moveto
225.6378 -141.73228 lineto
stroke
newpath
0.6 0.2 0.0 setrgbcolor
1.0 setlinewidth
10.0 setmiterlimit
1 setlinejoin
1 setlinecap
[ ] 0 setdash
newpath
225.6378 -141.73228 moveto
225.6378 -179.52756 lineto
stroke
newpath
0.6 0.2 0.0 setrgbcolor
1.0 setlinewidth
10.0 setmiterlimit
1 setlinejoin
1 setlinecap
[ ] 0 setdash
newpath
225.6378 -179.52756 moveto
282.33072 -160.62993 lineto
stroke
newpath
0.6 0.2 0.0 setrgbcolor
3.0 setlinewidth
10.0 setmiterlimit
1 setlinejoin
1 setlinecap
[ ] 0 setdash
newpath
282.33072 -160.62993 moveto
206.74016 -217.32283 lineto
stroke
newpath
0.6 0.2 0.0 setrgbcolor
1.0 setlinewidth
10.0 setmiterlimit
1 setlinejoin
1 setlinecap
[ ] 0 setdash
newpath
282.33072 -160.62993 moveto
206.74016 -217.32283 lineto
stroke
newpath
0.6 0.2 0.0 setrgbcolor
1.0 setlinewidth
10.0 setmiterlimit
1 setlinejoin
1 setlinecap
[ ] 0 setdash
newpath
206.74016 -217.32283 moveto
206.74016 -179.52756 lineto
stroke
newpath
0.6 0.2 0.0 setrgbcolor
1.0 setlinewidth
10.0 setmiterlimit
1 setlinejoin
1 setlinecap
[ ] 0 setdash
newpath
206.74016 -179.52756 moveto
225.6378 -141.73228 lineto
stroke
newpath
0.6 0.2 0.0 setrgbcolor
1.0 setlinewidth
10.0 setmiterlimit
1 setlinejoin
1 setlinecap
[ ] 0 setdash
newpath
225.6378 -141.73228 moveto
225.6378 -179.52756 lineto
stroke
newpath
0.6 0.2 0.0 setrgbcolor
1.0 setlinewidth
10.0 setmiterlimit
1 setlinejoin
1 setlinecap
[ ] 0 setdash
newpath
225.6378 -179.52756 moveto
282.33072 -160.62993 lineto
stroke
newpath
0.6 0.2 0.0 setrgbcolor
1.0 setlinewidth
10.0 setmiterlimit
1 setlinejoin
1 setlinecap
[ ] 0 setdash
newpath
282.33072 -160.62993 moveto
206.74016 -217.32283 lineto
stroke
newpath
0.6 0.2 0.0 setrgbcolor
1.0 setlinewidth
10.0 setmiterlimit
1 setlinejoin
1 setlinecap
[ ] 0 setdash
newpath
206.74016 -217.32283 moveto
206.74016 -179.52756 lineto
stroke
newpath
0.0 0.0 1.0 setrgbcolor
newpath
207.87401 -179.52756 moveto
207.87401 -180.15378 207.36636 -180.66142 206.74016 -180.66142 curveto
206.11394 -180.66142 205.6063 -180.15378 205.6063 -179.52756 curveto
205.6063 -178.90135 206.11394 -178.3937 206.74016 -178.3937 curveto
207.36636 -178.3937 207.87401 -178.90135 207.87401 -179.52756 curveto
closepath
fill
newpath
0.0 0.0 0.0 setrgbcolor
1.0 setlinewidth
10.0 setmiterlimit
1 setlinejoin
1 setlinecap
[ ] 0 setdash
newpath
207.87401 -179.52756 moveto
207.87401 -180.15378 207.36636 -180.66142 206.74016 -180.66142 curveto
206.11394 -180.66142 205.6063 -180.15378 205.6063 -179.52756 curveto
205.6063 -178.90135 206.11394 -178.3937 206.74016 -178.3937 curveto
207.36636 -178.3937 207.87401 -178.90135 207.87401 -179.52756 curveto
closepath
stroke
newpath
0.0 0.0 1.0 setrgbcolor
newpath
205.42323 -175.25197 moveto
204.8622 -173.83464 lineto
204.30708 -175.25197 lineto
205.42323 -175.25197 lineto
closepath
205.91339 -176.50394 moveto
205.55905 -175.59448 lineto
204.17126 -175.59448 lineto
203.81102 -176.50394 lineto
203.37401 -176.50394 lineto
204.67914 -173.22638 lineto
205.13977 -173.22638 lineto
206.41536 -176.50394 lineto
205.91339 -176.50394 lineto
closepath
fill
newpath
0.0 0.0 1.0 setrgbcolor
newpath
226.77165 -141.73228 moveto
226.77165 -142.35849 226.264 -142.86613 225.6378 -142.86613 curveto
225.01158 -142.86613 224.50394 -142.35849 224.50394 -141.73228 curveto
224.50394 -141.10606 225.01158 -140.59842 225.6378 -140.59842 curveto
226.264 -140.59842 226.77165 -141.10606 226.77165 -141.73228 curveto
closepath
fill
newpath
0.0 0.0 0.0 setrgbcolor
1.0 setlinewidth
10.0 setmiterlimit
1 setlinejoin
1 setlinecap
[ ] 0 setdash
newpath
226.77165 -141.73228 moveto
226.77165 -142.35849 226.264 -142.86613 225.6378 -142.86613 curveto
225.01158 -142.86613 224.50394 -142.35849 224.50394 -141.73228 curveto
224.50394 -141.10606 225.01158 -140.59842 225.6378 -140.59842 curveto
226.264 -140.59842 226.77165 -141.10606 226.77165 -141.73228 curveto
closepath
stroke
newpath
0.0 0.0 1.0 setrgbcolor
newpath
227.5748 -139.46457 moveto
227.5748 -136.18701 lineto
228.4252 -136.18701 lineto
228.75197 -136.18701 229.00296 -136.24902 229.17815 -136.37303 curveto
229.35335 -136.49704 229.44095 -136.6752 229.44095 -136.90749 curveto
229.44095 -137.30511 229.21654 -137.58858 228.76772 -137.75787 curveto
229.30315 -137.9193 229.57086 -138.21457 229.57086 -138.6437 curveto
229.57086 -138.91142 229.48228 -139.11516 229.30511 -139.25493 curveto
229.12794 -139.39468 228.87204 -139.46457 228.5374 -139.46457 curveto
227.5748 -139.46457 lineto
closepath
228.03543 -139.11613 moveto
228.12993 -139.11613 lineto
228.4685 -139.11613 228.68898 -139.09448 228.79134 -139.05118 curveto
228.98425 -138.97244 229.0807 -138.82283 229.0807 -138.60236 curveto
229.0807 -138.4055 228.9931 -138.2431 228.81792 -138.11516 curveto
228.64272 -137.98721 228.4252 -137.92323 228.16536 -137.92323 curveto
228.03543 -137.92323 lineto
228.03543 -139.11613 lineto
closepath
228.03543 -137.62796 moveto
228.18307 -137.62796 lineto
228.4311 -137.62796 228.62303 -137.57481 228.75887 -137.4685 curveto
228.89468 -137.3622 228.9626 -137.2126 228.9626 -137.01968 curveto
228.9626 -136.69685 228.7126 -136.53543 228.2126 -136.53543 curveto
228.03543 -136.53543 lineto
228.03543 -137.62796 lineto
closepath
fill
newpath
0.0 0.0 1.0 setrgbcolor
newpath
226.77165 -179.52756 moveto
226.77165 -180.15378 226.264 -180.66142 225.6378 -180.66142 curveto
225.01158 -180.66142 224.50394 -180.15378 224.50394 -179.52756 curveto
224.50394 -178.90135 225.01158 -178.3937 225.6378 -178.3937 curveto
226.264 -178.3937 226.77165 -178.90135 226.77165 -179.52756 curveto
closepath
fill
newpath
0.0 0.0 0.0 setrgbcolor
1.0 setlinewidth
10.0 setmiterlimit
1 setlinejoin
1 setlinecap
[ ] 0 setdash
newpath
226.77165 -179.52756 moveto
226.77165 -180.15378 226.264 -180.66142 225.6378 -180.66142 curveto
225.01158 -180.66142 224.50394 -180.15378 224.50394 -179.52756 curveto
224.50394 -178.90135 225.01158 -178.3937 225.6378 -178.3937 curveto
226.264 -178.3937 226.77165 -178.90135 226.77165 -179.52756 curveto
closepath
stroke
newpath
0.0 0.0 1.0 setrgbcolor
newpath
228.97441 -177.34251 moveto
228.46654 -177.34251 228.07382 -177.19292 227.79626 -176.8937 curveto
227.5187 -176.5945 227.37993 -176.17126 227.37993 -175.62401 curveto
227.37993 -175.07677 227.52165 -174.65256 227.80511 -174.35138 curveto
228.08858 -174.0502 228.48622 -173.89961 228.99803 -173.89961 curveto
229.2933 -173.89961 229.6378 -173.94685 230.0315 -174.04134 curveto
230.0315 -174.47835 lineto
229.58267 -174.3248 229.23622 -174.24803 228.99213 -174.24803 curveto
228.6378 -174.24803 228.36319 -174.3681 228.1683 -174.60826 curveto
227.97343 -174.84842 227.87599 -175.18898 227.87599 -175.62993 curveto
227.87599 -176.04724 227.97934 -176.37598 228.18602 -176.61613 curveto
228.39272 -176.8563 228.67717 -176.97638 229.03937 -176.97638 curveto
229.35039 -176.97638 229.68307 -176.8819 230.0374 -176.69292 curveto
230.0374 -177.08858 lineto
229.71457 -177.25787 229.36023 -177.34251 228.97441 -177.34251 curveto
closepath
fill
newpath
0.0 0.0 1.0 setrgbcolor
newpath
283.46457 -160.62993 moveto
283.46457 -161.25613 282.9569 -161.76378 282.33072 -161.76378 curveto
281.7045 -161.76378 281.19684 -161.25613 281.19684 -160.62993 curveto
281.19684 -160.00371 281.7045 -159.49606 282.33072 -159.49606 curveto
282.9569 -159.49606 283.46457 -160.00371 283.46457 -160.62993 curveto
closepath
fill
newpath
0.0 0.0 0.0 setrgbcolor
1.0 setlinewidth
10.0 setmiterlimit
1 setlinejoin
1 setlinecap
[ ] 0 setdash
newpath
283.46457 -160.62993 moveto
283.46457 -161.25613 282.9569 -161.76378 282.33072 -161.76378 curveto
281.7045 -161.76378 281.19684 -161.25613 281.19684 -160.62993 curveto
281.19684 -160.00371 281.7045 -159.49606 282.33072 -159.49606 curveto
282.9569 -159.49606 283.46457 -160.00371 283.46457 -160.62993 curveto
closepath
stroke
newpath
0.0 0.0 1.0 setrgbcolor
newpath
284.26773 -158.3622 moveto
284.26773 -155.08464 lineto
285.35434 -155.08464 lineto
285.6811 -155.08464 285.9439 -155.12106 286.14273 -155.1939 curveto
286.34155 -155.26672 286.5138 -155.38976 286.65945 -155.56299 curveto
286.89172 -155.83464 287.00787 -156.19489 287.00787 -156.6437 curveto
287.00787 -157.19095 286.86417 -157.61418 286.57678 -157.91339 curveto
286.28937 -158.2126 285.88385 -158.3622 285.36023 -158.3622 curveto
284.26773 -158.3622 lineto
closepath
284.72833 -158.01378 moveto
285.3248 -158.01378 lineto
285.75 -158.01378 286.05118 -157.89961 286.22833 -157.67126 curveto
286.42126 -157.42717 286.51773 -157.10039 286.51773 -156.69095 curveto
286.51773 -156.30511 286.42325 -156.00197 286.23425 -155.7815 curveto
286.1201 -155.64763 285.98425 -155.5561 285.82678 -155.5069 curveto
285.66928 -155.45769 285.4311 -155.43307 285.1122 -155.43307 curveto
284.72833 -155.43307 lineto
284.72833 -158.01378 lineto
closepath
fill
newpath
0.0 0.0 1.0 setrgbcolor
newpath
207.87401 -217.32283 moveto
207.87401 -217.94905 207.36636 -218.4567 206.74016 -218.4567 curveto
206.11394 -218.4567 205.6063 -217.94905 205.6063 -217.32283 curveto
205.6063 -216.69662 206.11394 -216.18898 206.74016 -216.18898 curveto
207.36636 -216.18898 207.87401 -216.69662 207.87401 -217.32283 curveto
closepath
fill
newpath
0.0 0.0 0.0 setrgbcolor
1.0 setlinewidth
10.0 setmiterlimit
1 setlinejoin
1 setlinecap
[ ] 0 setdash
newpath
207.87401 -217.32283 moveto
207.87401 -217.94905 207.36636 -218.4567 206.74016 -218.4567 curveto
206.11394 -218.4567 205.6063 -217.94905 205.6063 -217.32283 curveto
205.6063 -216.69662 206.11394 -216.18898 206.74016 -216.18898 curveto
207.36636 -216.18898 207.87401 -216.69662 207.87401 -217.32283 curveto
closepath
stroke
newpath
0.0 0.0 1.0 setrgbcolor
newpath
203.76378 -223.37007 moveto
203.76378 -220.09251 lineto
205.59448 -220.09251 lineto
205.59448 -220.44095 lineto
204.22441 -220.44095 lineto
204.22441 -221.49213 lineto
205.37007 -221.49213 lineto
205.37007 -221.83464 lineto
204.22441 -221.83464 lineto
204.22441 -223.02165 lineto
205.68898 -223.02165 lineto
205.68898 -223.37007 lineto
203.76378 -223.37007 lineto
closepath
fill
newpath
0.0 0.0 1.0 setrgbcolor
newpath
151.1811 -141.73228 moveto
151.1811 -142.35849 150.67346 -142.86613 150.04724 -142.86613 curveto
149.42104 -142.86613 148.91339 -142.35849 148.91339 -141.73228 curveto
148.91339 -141.10606 149.42104 -140.59842 150.04724 -140.59842 curveto
150.67346 -140.59842 151.1811 -141.10606 151.1811 -141.73228 curveto
closepath
fill
newpath
0.0 0.0 0.0 setrgbcolor
1.0 setlinewidth
10.0 setmiterlimit
1 setlinejoin
1 setlinecap
[ ] 0 setdash
newpath
151.1811 -141.73228 moveto
151.1811 -142.35849 150.67346 -142.86613 150.04724 -142.86613 curveto
149.42104 -142.86613 148.91339 -142.35849 148.91339 -141.73228 curveto
148.91339 -141.10606 149.42104 -140.59842 150.04724 -140.59842 curveto
150.67346 -140.59842 151.1811 -141.10606 151.1811 -141.73228 curveto
closepath
stroke
newpath
0.0 0.0 1.0 setrgbcolor
newpath
153.30118 -139.54724 moveto
152.84842 -139.54724 152.48326 -139.38976 152.2057 -139.0748 curveto
151.92815 -138.75984 151.78937 -138.34251 151.78937 -137.82283 curveto
151.78937 -137.30315 151.92815 -136.88681 152.2057 -136.57382 curveto
152.48326 -136.26082 152.8563 -136.10432 153.3248 -136.10432 curveto
153.78543 -136.10432 154.15552 -136.25984 154.43504 -136.57086 curveto
154.71457 -136.88188 154.85432 -137.29724 154.85432 -137.81693 curveto
154.85432 -138.34842 154.71457 -138.76968 154.43504 -139.0807 curveto
154.15552 -139.39172 153.77756 -139.54724 153.30118 -139.54724 curveto
closepath
153.30708 -139.19882 moveto
153.64172 -139.19882 153.90059 -139.07776 154.08366 -138.83563 curveto
154.26672 -138.5935 154.35826 -138.25394 154.35826 -137.81693 curveto
154.35826 -137.3878 154.26672 -137.05315 154.08366 -136.81299 curveto
153.90059 -136.57283 153.64763 -136.45276 153.3248 -136.45276 curveto
152.99803 -136.45276 152.7431 -136.57382 152.56004 -136.81595 curveto
152.37697 -137.05807 152.28543 -137.3937 152.28543 -137.82283 curveto
152.28543 -138.24803 152.37598 -138.58366 152.55708 -138.82973 curveto
152.73819 -139.07579 152.98819 -139.19882 153.30708 -139.19882 curveto
closepath
fill
newpath
0.2509804 0.2509804 0.2509804 setrgbcolor
newpath
207.87401 -179.52756 moveto
207.87401 -180.15378 207.36636 -180.66142 206.74016 -180.66142 curveto
206.11394 -180.66142 205.6063 -180.15378 205.6063 -179.52756 curveto
205.6063 -178.90135 206.11394 -178.3937 206.74016 -178.3937 curveto
207.36636 -178.3937 207.87401 -178.90135 207.87401 -179.52756 curveto
closepath
fill
newpath
0.0 0.0 0.0 setrgbcolor
1.0 setlinewidth
10.0 setmiterlimit
1 setlinejoin
1 setlinecap
[ ] 0 setdash
newpath
207.87401 -179.52756 moveto
207.87401 -180.15378 207.36636 -180.66142 206.74016 -180.66142 curveto
206.11394 -180.66142 205.6063 -180.15378 205.6063 -179.52756 curveto
205.6063 -178.90135 206.11394 -178.3937 206.74016 -178.3937 curveto
207.36636 -178.3937 207.87401 -178.90135 207.87401 -179.52756 curveto
closepath
stroke
newpath
0.2509804 0.2509804 0.2509804 setrgbcolor
newpath
226.77165 -141.73228 moveto
226.77165 -142.35849 226.264 -142.86613 225.6378 -142.86613 curveto
225.01158 -142.86613 224.50394 -142.35849 224.50394 -141.73228 curveto
224.50394 -141.10606 225.01158 -140.59842 225.6378 -140.59842 curveto
226.264 -140.59842 226.77165 -141.10606 226.77165 -141.73228 curveto
closepath
fill
newpath
0.0 0.0 0.0 setrgbcolor
1.0 setlinewidth
10.0 setmiterlimit
1 setlinejoin
1 setlinecap
[ ] 0 setdash
newpath
226.77165 -141.73228 moveto
226.77165 -142.35849 226.264 -142.86613 225.6378 -142.86613 curveto
225.01158 -142.86613 224.50394 -142.35849 224.50394 -141.73228 curveto
224.50394 -141.10606 225.01158 -140.59842 225.6378 -140.59842 curveto
226.264 -140.59842 226.77165 -141.10606 226.77165 -141.73228 curveto
closepath
stroke
newpath
0.2509804 0.2509804 0.2509804 setrgbcolor
newpath
226.77165 -179.52756 moveto
226.77165 -180.15378 226.264 -180.66142 225.6378 -180.66142 curveto
225.01158 -180.66142 224.50394 -180.15378 224.50394 -179.52756 curveto
224.50394 -178.90135 225.01158 -178.3937 225.6378 -178.3937 curveto
226.264 -178.3937 226.77165 -178.90135 226.77165 -179.52756 curveto
closepath
fill
newpath
0.0 0.0 0.0 setrgbcolor
1.0 setlinewidth
10.0 setmiterlimit
1 setlinejoin
1 setlinecap
[ ] 0 setdash
newpath
226.77165 -179.52756 moveto
226.77165 -180.15378 226.264 -180.66142 225.6378 -180.66142 curveto
225.01158 -180.66142 224.50394 -180.15378 224.50394 -179.52756 curveto
224.50394 -178.90135 225.01158 -178.3937 225.6378 -178.3937 curveto
226.264 -178.3937 226.77165 -178.90135 226.77165 -179.52756 curveto
closepath
stroke
newpath
0.2509804 0.2509804 0.2509804 setrgbcolor
newpath
283.46457 -160.62993 moveto
283.46457 -161.25613 282.9569 -161.76378 282.33072 -161.76378 curveto
281.7045 -161.76378 281.19684 -161.25613 281.19684 -160.62993 curveto
281.19684 -160.00371 281.7045 -159.49606 282.33072 -159.49606 curveto
282.9569 -159.49606 283.46457 -160.00371 283.46457 -160.62993 curveto
closepath
fill
newpath
0.0 0.0 0.0 setrgbcolor
1.0 setlinewidth
10.0 setmiterlimit
1 setlinejoin
1 setlinecap
[ ] 0 setdash
newpath
283.46457 -160.62993 moveto
283.46457 -161.25613 282.9569 -161.76378 282.33072 -161.76378 curveto
281.7045 -161.76378 281.19684 -161.25613 281.19684 -160.62993 curveto
281.19684 -160.00371 281.7045 -159.49606 282.33072 -159.49606 curveto
282.9569 -159.49606 283.46457 -160.00371 283.46457 -160.62993 curveto
closepath
stroke
newpath
0.2509804 0.2509804 0.2509804 setrgbcolor
newpath
207.87401 -217.32283 moveto
207.87401 -217.94905 207.36636 -218.4567 206.74016 -218.4567 curveto
206.11394 -218.4567 205.6063 -217.94905 205.6063 -217.32283 curveto
205.6063 -216.69662 206.11394 -216.18898 206.74016 -216.18898 curveto
207.36636 -216.18898 207.87401 -216.69662 207.87401 -217.32283 curveto
closepath
fill
newpath
0.0 0.0 0.0 setrgbcolor
1.0 setlinewidth
10.0 setmiterlimit
1 setlinejoin
1 setlinecap
[ ] 0 setdash
newpath
207.87401 -217.32283 moveto
207.87401 -217.94905 207.36636 -218.4567 206.74016 -218.4567 curveto
206.11394 -218.4567 205.6063 -217.94905 205.6063 -217.32283 curveto
205.6063 -216.69662 206.11394 -216.18898 206.74016 -216.18898 curveto
207.36636 -216.18898 207.87401 -216.69662 207.87401 -217.32283 curveto
closepath
stroke
newpath
grestore
grestore
showpage

%%EOF