verbatimtex
%&latex
\documentclass{article}
%\usepackage{perso-thierry}
\usepackage{amsmath}
\usepackage[T1]{fontenc}
\begin{document}
etex


input newcourbes;
input couleur;
input geometriesyr16;



beginfig(1);
repere(0,0,-8,4,-6,0.5,0.7cm,1cm);
quadc_x(0.5,orange);
quadc_y(0.5,orange);
r_axes;
r_origine;
r_unites;
r_labelxy;
grad_x(1,10,noir);
grad_y(1,10,noir);
draw r_droite(0,-1,0.5) withpen pencircle scaled 1pt withcolor vert_fonce;
label.bot(btex $(d)$ etex,r_p(-7,-4.5));
draw r_droite(0,-2,1/3) withpen pencircle scaled 1pt withcolor bleu;
label.top(btex $(d')$ etex,r_p(-7,-13/3));
r_pp(-6,-4);
r_proj(-6,-4,noir);
label.top(btex $x=-6$ etex,r_p(-6,0));
label.rt(btex $y=-4$ etex,r_p(0,-4));
r_fin;
endfig;

