verbatimtex
%&latex
\documentclass{article}
\usepackage{amsmath}
\usepackage[T1]{fontenc}
\begin{document}
etex

input geometriesyr16;

beginfig(1);
figuremainlevee(0,0,8u,6u);
pair A,F,M;
A=u*(1,1);
F=u*(7,1);
path cc;
cc=cercledia(A,F);
M=pointarc(cc,110);
trace A--M--F--cycle;
trace codeperp(A,M,F,8);
nomme.llft(A);
nomme.lrt(F);
nomme.top(M);
trace appelation(A,M,2mm,btex 21 etex);
trace appelation(M,F,2mm,btex 28 etex);
trace appelation(A,F,-2mm,btex ? etex);
finmainlevee;
endfig;

beginfig(2);
figuremainlevee(0,0,8u,6u);
pair S,B,R;
B=u*(1,1);
R=u*(7,1);
path cc;
cc=cercledia(B,R);
S=pointarc(cc,135);
trace S--B--R--cycle;
trace codeperp(B,S,R,8);
nomme.llft(B);
nomme.lrt(R);
nomme.top(S);
trace appelation(B,S,2mm,btex 10 etex);
trace appelation(S,R,2mm,btex ? etex);
trace appelation(B,R,-2mm,btex 26 etex);
finmainlevee;
endfig;