verbatimtex
%&latex
\documentclass{article}
%\usepackage{perso-thierry}
\usepackage{amsmath}
\usepackage[T1]{fontenc}
\begin{document}
etex


input newcourbes;
input couleur;
input geometriesyr16;

beginfig(1);
repere(0,0,-5,5,-5,5,0.85cm,0.7cm);
quadc_x(0.5,orange);
quadc_y(0.5,orange);
r_axes;
r_origine;
r_unites;
r_labelxy;
grad_x(1,1,noir);
grad_y(1,1,noir);
r_fin;
endfig;

beginfig(2);
repere(0,0,-5,5,-4,4,0.8cm,0.7cm);
quadc_x(0.5,orange);
quadc_y(0.5,orange);
r_axes;
r_origine;
r_unites;
r_labelxy;
grad_x(1,1,noir);
grad_y(1,1,noir);
r_fin;
endfig;