input geometriesyr16;

beginfig(1);
u:=0.5cm;
figure(0,0,16u,9u);
trace grille(0.25) withcolor red;
dotlabel.llft(btex $A$ etex,placepoint(20,5));
dotlabel.urt(btex $A'$ etex,placepoint(27,7));
dotlabel.llft(btex $B$ etex,placepoint(4,10));
dotlabel.urt(btex $B'$ etex,placepoint(11,12));
dotlabel.llft(btex $C$ etex,placepoint(21,3));
dotlabel.urt(btex $C'$ etex,placepoint(28,5));
label.top(btex $\vec{u}$ etex,placepoint(13.5,8));
drawarrow placepoint(20,5)--placepoint(27,7) withpen pencircle scaled 1.5bp;
drawarrow placepoint(4,10)--placepoint(11,12) withpen pencircle scaled 1.5bp;
drawarrow placepoint(21,3)--placepoint(28,5) withpen pencircle scaled 1.5bp;
drawarrow placepoint(10,7)--placepoint(17,9) withpen pencircle scaled 1.5bp;
fin;
endfig;

beginfig(2);
u:=0.5cm;
figure(-1.5u,u,8.5u,4.5u);
trace feuillet withcolor blanc;
pair A,B,C,D;
A=u*(4,2);
B=u*(0.5,4);
C=u*(8,1.5);
D=u*(4.5,3.5);
trace segment(A,C) dashed evenly;
trace segment(B,D) dashed evenly;
label.top(btex $\vec{u}$ etex,iso(A,B));
label.top(btex $\vec{v}$ etex,iso(C,D)); 
trace droite(A,B) dashed evenly withcolor red;
trace droite(C,D) dashed evenly withcolor red;
drawarrow A--B withpen pencircle scaled 1bp;
drawarrow C--D withpen pencircle scaled 1bp;
fin;
endfig;

beginfig(3);
u:=0.7cm;
figure(0,0,9.5u,5u);
trace feuillet withcolor blanc;
pair A,B,C,D;
A=u*(1,1);
B=u*(1.5,4);
C=u*(4,1.5);
D=u*(4.5,4.5);
trace segment(A,C) dashed evenly;
trace segment(B,D) dashed evenly;
trace droite(A,B) dashed evenly withcolor red;
trace droite(C,D) dashed evenly withcolor red;
drawarrow A--B withpen pencircle scaled 1bp;
drawarrow C--D withpen pencircle scaled 1bp;
label.llft(btex $A$ etex,A);
label.ulft(btex $B$ etex,B);
label.urt(btex $D$ etex,D);
label.lrt(btex $C$ etex,C);
pair E,F,G,H;
E=u*(5,1);
F=u*(8,2.5);
G=u*(6,1.5);
H=u*(9,3);
marque_p:="plein";
pointe(G);
pointe(E);
trace droite(E,F) dashed evenly withcolor red;
drawarrow E--F withpen pencircle scaled 1bp;
drawarrow G--H withpen pencircle scaled 1bp;
label.bot(btex $A$ etex,E);
label.top(btex $B$ etex,F);
label.top(btex $C$ etex,G);
label.bot(btex $D$ etex,H);
label(btex ou etex,iso(D,F));
fin;
endfig;

beginfig(4);
figure(0,0,6u,5u);
trace feuillet withcolor blanc;
pair A,B,C,D;
A=u*(1,1);
B=u*(4,2.5);
C=u*(2,1.5);
D=u*(5,3);
marque_p:="plein";
pointe(C);
trace droite(A,B) dashed evenly withcolor orange;
drawarrow A--B withpen pencircle scaled 1bp;
drawarrow C--D withpen pencircle scaled 1bp;
label.bot(btex $A$ etex,A);
label.top(btex $B$ etex,B);
label.top(btex $D$ etex,D);
label.bot(btex $C$ etex,C);
fin;
endfig;

beginfig(5);
figure(0,0,5u,5u);
trace feuillet withcolor blanc;
pair A,B,C,D,I;
A=u*(1,1);
B=u*(1.5,4);
C=u*(4,1.5);
D=u*(4.5,4.5);
trace segment(A,C) dashed evenly;
trace segment(B,D) dashed evenly;
trace droite(A,B) dashed evenly withcolor red;
trace droite(C,D) dashed evenly withcolor red;
drawarrow A--B withpen pencircle scaled 1bp;
drawarrow C--D withpen pencircle scaled 1bp;
trace segment(A,D) dashed evenly;
trace segment(B,C) dashed evenly;
I=segment(A,D) intersectionpoint segment(B,C);
trace codesegments(A,I,I,D,1);
trace codesegments(B,I,I,C,2);
label.llft(btex $A$ etex,A);
label.ulft(btex $B$ etex,B);
label.urt(btex $D$ etex,D);
label.lrt(btex $C$ etex,C);
nomme.top(I);
fin;
endfig;

beginfig(6);
u:=1cm;
figure(0,0,8u,4u);
trace grille(0.5) withcolor red;
dotlabel.ulft(btex $A$ etex,placepoint(2,7));
dotlabel.llft(btex $B$ etex,placepoint(4,2));
dotlabel.urt(btex $C$ etex,placepoint(9,6));
drawarrow placepoint(2,7)--placepoint(4,2) withpen pencircle scaled 1.5bp;
remplis cercles(placepoint(11,1),0.7cm) withcolor gris;
fin;
endfig;

beginfig(7);
u:=1cm;
figure(0,0,8u,4u);
trace grille(0.5) withcolor red;
dotlabel.ulft(btex $A$ etex,placepoint(2,7));
dotlabel.llft(btex $B$ etex,placepoint(4,2));
dotlabel.urt(btex $C$ etex,placepoint(9,6));
dotlabel.lrt(btex $D$ etex,placepoint(11,1));
drawarrow placepoint(2,7)--placepoint(4,2) withpen pencircle scaled 1.5bp;
drawarrow placepoint(9,6)--placepoint(11,1) withpen pencircle scaled 1.5bp;
trace chemin(placepoint(9,6),placepoint(11,6),placepoint(11,1)) withpen pencircle scaled 1.5bp dashed evenly;
fin;
endfig;

beginfig(8);
u:=1cm;
figure(0,0,8u,4u);
trace feuillet withcolor blanc;
pair A,B,C,D;
A=u*(1,3.5);
B=u*(2,1);
C=u*(5.5,3);
D=u*(6.5,0.5);
dotlabel.ulft(btex $A$ etex,A);
dotlabel.llft(btex $B$ etex,B);
dotlabel.urt(btex $C$ etex,C);
drawarrow A--B withpen pencircle scaled 1.5bp;
remplis cercles(D,0.7cm) withcolor gris;
fin;
endfig;

beginfig(9);
u:=1cm;
figure(0,0,8u,4u);
trace feuillet withcolor blanc;
pair A,B,C,D;
A=u*(1,3.5);
B=u*(2,1);
C=u*(5.5,3);
D=u*(6.5,0.5);
dotlabel.ulft(btex $A$ etex,A);
dotlabel.llft(btex $B$ etex,B);
dotlabel.urt(btex $C$ etex,C);
dotlabel.lrt(btex $D$ etex,D);
drawarrow A--B withpen pencircle scaled 1.5bp;
drawarrow C--D withpen pencircle scaled 1.5bp;
trace coupdecompas(C,D,15);
trace coupdecompas(B,D,15);
fin;
endfig;

beginfig(10);
u:=0.8cm;
figure(0,u,8.5u,4.5u);
trace feuillet withcolor blanc;
pair A,B,C,D,E,F;
A=u*(4,2);
B=u*(1.5,4);
C=u*(8,1.5);
D=u*(5.5,3.5);
E=u*(4.75,4.5);
F=u*(4.75,1);
trace segment(E,F) dashed evenly withcolor red;
drawarrow A--B withpen pencircle scaled 1bp;
drawarrow D--C withpen pencircle scaled 1bp;
label.top(btex $A$ etex,A);
label.top(btex $B$ etex,B);
label.top(btex $A$ etex,C);
label.top(btex $B$ etex,D);
fin;
endfig;

beginfig(11);
u:=0.7cm;
figure(0,0,16u,8.5u);
trace feuillet withcolor blanc;
pair A,B,C,D,E,F;
A=u*(2,1);
B=u*(4,6);
C=u*(6,2);
D=u*(2,6.3);
E=u*(4,7.8);
F=u*(9.5,7.3);
trace polygone(A,B,C);
trace polygone(A+u*(7.5,1),B+u*(7.5,1),C+u*(7.5,1));
trace polygone(A+u*(2,1.5),B+u*(2,1.5),C+u*(2,1.5)) dashed evenly;
drawarrow D--E;
drawarrow E--F;
drawarrow D--F withpen pencircle scaled 1bp withcolor red;
trace appelation(D,F,-2mm,btex $\vec{u}+\vec{v}$ etex);
drawarrow A--A+u*(2,1.5);
drawarrow A+u*(2,1.5)--A+u*(7.5,1);
trace appelation(D,E,2mm,btex $\vec{u}$ etex);
trace appelation(A,A+u*(2,1.5),2mm,btex $\vec{u}$ etex);
trace appelation(E,F,2mm,btex $\vec{v}$ etex);
trace appelation(A+u*(2,1.5),A+u*(7.5,1),2mm,btex $\vec{v}$ etex);
drawarrow A--A+u*(7.5,1) withpen pencircle scaled 1bp withcolor red;
trace appelation(A,A+u*(7.5,1),-2mm,btex $\vec{u}+\vec{v}$ etex);
dotlabel.lft(btex $A$ etex,D);
dotlabel.top(btex $B$ etex,E);
dotlabel.rt(btex $C$ etex,F);
fin;
endfig;

beginfig(12);
u:=1cm;
figure(0,0,8u,8u);
trace feuillet withcolor blanc;
pair A,B,C,D,E,F,G;
A=u*(1,1.5);
B=u*(2,6);
C=u*(3,1);
D=u*(6.5,1.5);
drawarrow A--B;
drawarrow C--D;
E=u*(2,2);
F=E+(B-A);
G=F+(D-C);
drawarrow E--F dashed evenly;
drawarrow F--G dashed evenly;
drawarrow E--G withpen pencircle scaled 1bp withcolor red;
trace appelation(E,G,-2mm,btex $\vec{u}+\vec{v}$ etex);
trace appelation(A,B,-2mm,btex $\vec{u}$ etex);
trace appelation(C,D,-2mm,btex $\vec{v}$ etex);
trace appelation(E,F,2mm,btex $\vec{u}$ etex);
trace appelation(F,G,2mm,btex $\vec{v}$ etex);
dotlabel.llft(btex $A$ etex,E);
dotlabel.urt(btex $B$ etex,G);
dotlabel.urt(btex $M$ etex,F);
fin;
endfig;

beginfig(13);
u:=1cm;
figure(0,0,8u,8u);
trace feuillet withcolor blanc;
pair A,B,C,D,E,F,G,H;
A=u*(1,1.5);
B=u*(2,6);
C=u*(3,1);
D=u*(6.5,1.5);
drawarrow A--B;
drawarrow C--D;
E=u*(2,2);
F=E+(B-A);
G=E+(D-C);
H=F+(D-C);
drawarrow E--F dashed evenly;
drawarrow E--G dashed evenly;
drawarrow E--H withpen pencircle scaled 1bp withcolor red;
trace coupdecompas(F,H,30);
trace coupdecompas(G,H,30);
dotlabel.urt(btex $B$ etex,H);
trace appelation(E,H,-2mm,btex $\vec{u}+\vec{v}$ etex);
trace appelation(A,B,-2mm,btex $\vec{u}$ etex);
trace appelation(C,D,-2mm,btex $\vec{v}$ etex);
trace appelation(E,F,-2mm,btex $\vec{u}$ etex);
trace appelation(E,G,2mm,btex $\vec{v}$ etex);
dotlabel.llft(btex $A$ etex,E);
dotlabel.urt(btex $M$ etex,F);
dotlabel.urt(btex $N$ etex,G);
fin;
endfig;

beginfig(14);
u:=1cm;
figure(0,0,7u,4u);
trace feuillet withcolor blanc;
pair A,B,I;
A=u*(1,1.5);
B=u*(6,2.5);
I=iso(A,B);
drawarrow A--I;
drawarrow I--B;
dotlabel.llft(btex $A$ etex,A);
dotlabel.urt(btex $B$ etex,B);
dotlabel.top(btex $I$ etex,I);
trace codesegments(A,I,I,B,2);
fin;
endfig;

beginfig(15);
u:=0.5cm;
figure(u,-1.5u,14u,7.5u);
trace feuillet withcolor blanc;
pair A,B,C,I,J,K;
A=u*(2,1);
B=u*(3,6);
C=u*(5,2);
trace polygone(A,B,C);
I=u*(5,4);
marque_p:="croix";
pointe(I);
trace symetrie(polygone(A,B,C),I) dashed evenly;
J=u*(9,3.5);
pointe(J);
trace symetrie(symetrie(polygone(A,B,C),I),J);
K=A+2*(J-I);
drawarrow A--K withcolor red;
drawarrow I--J withcolor red;
label.ulft(btex $A$ etex,I);
label.urt(btex $B$ etex,J);
trace appelation(A,K,-2mm,btex $2\vec{AB}$ etex);
fin;
endfig;

u:=1cm;

beginfig(16);
figure(0,0,5.5u,5u);
trace feuillet withcolor blanc;
pair A,B,C,D,I;
A=u*(1,1);
B=u*(1.5,4);
C=u*(4,1.5);
D=u*(4.5,4.5);
trace segment(A,D) dashed evenly;
trace segment(B,C) dashed evenly;
trace droite(A,B) dashed evenly withcolor red;
trace droite(C,D) dashed evenly withcolor red;
drawarrow A--B withpen pencircle scaled 1bp;
drawarrow C--D withpen pencircle scaled 1bp;
label.llft(btex $A$ etex,A);
label.ulft(btex $B$ etex,B);
label.urt(btex $D$ etex,D);
label.lrt(btex $C$ etex,C);
I=iso(A,D);
trace segment(A,C);
trace segment(B,D);
trace codesegments(A,I,I,D,1);
trace codesegments(B,I,I,C,2);
dotlabel.top(btex $I$ etex,I);
fin;
endfig;

beginfig(17);
figure(0,0,5.5u,3.5u);
pair E,F,G,H,I,J;
E=u*(1,1);
F=u*(4,2.5);
G=u*(2,1.5);
H=u*(5,3);
marque_p:="plein";
pointe(G);
pointe(E);
trace droite(E,F) dashed evenly withcolor red;
drawarrow E--F withpen pencircle scaled 1bp;
drawarrow G--H withpen pencircle scaled 1bp;
label.bot(btex $A$ etex,E);
label.top(btex $B$ etex,F);
label.top(btex $C$ etex,G);
label.bot(btex $D$ etex,H);
J=iso(E,H);
dotlabel.top(btex $I$ etex,J);
fin;
endfig;




