verbatimtex
%&latex
\documentclass{article}
\usepackage{amsmath}
\usepackage[T1]{fontenc}
\begin{document}
etex

input geometriesyr16;

u:=0.7cm;

beginfig(1);
figuremainlevee(0,0,14u,7u);
pair E,F,G,I;
F=u*(0.5,1);
G=u*(13.5,1);
E=cercledia(G,F) intersectionpoint cercles(G,12u);
trace triangle(E,F,G);
nomme.lft(F);
nomme.rt(G);
nomme.top(E);
I=iso(F,G);
nomme.top(I);
trace segment(E,I);
trace appelation(F,G,-3mm,btex 13 cm etex);
trace appelation(E,G,3mm,btex 12 cm etex);
trace appelation(F,E,3mm,btex 5 cm etex);
trace appelation(E,I,-3mm,btex 6.5 cm etex);
finmainlevee;
endfig;

