verbatimtex
%&latex
\documentclass{article}
\usepackage{amsmath}
\usepackage{fourier}
\begin{document}
etex;

input geometriesyr16;

u:=0.6cm;

%repere quelconque
beginfig(1);
figure(-4.5u,-4.5u,4.5u,4.5u);
numeric xI,yI,xJ,yJ;
xI:=1;
yI:=0;
xJ:=0.5;
yJ:=1.2;
pair O,I,J,M[],P[];
O=u*(0,0);
I=u*(xI,yI);
J=u*(xJ,yJ);
dotlabel.llft(btex $O$ etex,O);
dotlabel.lrt(btex $1$ etex,I);
dotlabel.ulft(btex $1$ etex,J);
for j=-5 upto 5:
M[j]=j[O,I];
trace parallele(O,J,M[j]) dashed evenly withcolor red withpen pencircle scaled 0.5pt;
endfor;
for k=-4 upto 4:
P[k]=k[O,J];
trace parallele(O,I,P[k]) dashed evenly withcolor red withpen pencircle scaled 0.5pt;
endfor;
trace droite(O,I) withpen pencircle scaled 1pt;
trace droite (O,J) withpen pencircle scaled 1pt;
pair U,V;
U=demidroite(O,I) intersectionpoint feuillet;
V=demidroite(O,J) intersectionpoint feuillet;
drawarrow O--V;
drawarrow O--U;
pair E,F[];
numeric xE,yE;
xE:=3;
yE:=-2;
E=xE[O,I]+yE[O,J];
dotlabel.lrt(btex $M$ etex,E);
F1=droite(O,I) intersectionpoint parallele(O,J,E);
F2=droite(O,J) intersectionpoint parallele(O,I,E);
trace segment(E,F1) dashed evenly withpen pencircle scaled 1pt;
trace segment(E,F2) dashed evenly withpen pencircle scaled 1pt;
%dotlabel.urt(btex $x_M$ etex,F1);
%dotlabel.llft(btex $y_M$ etex,F2);
fin;
endfig;

%repere orthogonal
beginfig(2);
figure(-4.5u,-4.5u,4.5u,4.5u);
numeric xI,yI,xJ,yJ;
xI:=1;
yI:=0;
xJ:=0;
yJ:=1.4;
pair O,I,J,M[],P[];
O=u*(0,0);
I=u*(xI,yI);
J=u*(xJ,yJ);
dotlabel.llft(btex $O$ etex,O);
dotlabel.lrt(btex $1$ etex,I);
dotlabel.ulft(btex $1$ etex,J);
for j=-5 upto 5:
M[j]=j[O,I];
trace parallele(O,J,M[j]) dashed evenly withcolor red withpen pencircle scaled 0.5pt;
endfor;
for k=-4 upto 4:
P[k]=k[O,J];
trace parallele(O,I,P[k]) dashed evenly withcolor red withpen pencircle scaled 0.5pt;
endfor;
trace droite(O,I) withpen pencircle scaled 1pt;
trace droite (O,J) withpen pencircle scaled 1pt;
pair U,V;
U=demidroite(O,I) intersectionpoint feuillet;
V=demidroite(O,J) intersectionpoint feuillet;
drawarrow O--V;
drawarrow O--U;
pair E,F[];
numeric xE,yE;
xE:=2;
yE:=-1;
E=xE[O,I]+yE[O,J];
dotlabel.lrt(btex $M$ etex,E);
F1=projection(E,O,I);
F2=projection(E,O,J);
trace segment(E,F1) dashed evenly withpen pencircle scaled 1pt;
trace segment(E,F2) dashed evenly withpen pencircle scaled 1pt;
dotlabel.urt(btex $x_M$ etex,F1);
dotlabel.llft(btex $y_M$ etex,F2);
fin;
endfig;

%repere orthonormé
beginfig(3);
figure(-4.5u,-4.5u,4.5u,4.5u);
numeric xI,yI,xJ,yJ;
xI:=1;
yI:=0;
xJ:=0;
yJ:=1;
pair O,I,J,M[],P[];
O=u*(0,0);
I=u*(xI,yI);
J=u*(xJ,yJ);
dotlabel.llft(btex $O$ etex,O);
dotlabel.lrt(btex $1$ etex,I);
dotlabel.ulft(btex $1$ etex,J);
for j=-5 upto 5:
M[j]=j[O,I];
trace parallele(O,J,M[j]) dashed evenly withcolor red withpen pencircle scaled 0.5pt;
endfor;
for k=-4 upto 4:
P[k]=k[O,J];
trace parallele(O,I,P[k]) dashed evenly withcolor red withpen pencircle scaled 0.5pt;
endfor;
trace droite(O,I) withpen pencircle scaled 1pt;
trace droite (O,J) withpen pencircle scaled 1pt;
pair U,V;
U=demidroite(O,I) intersectionpoint feuillet;
V=demidroite(O,J) intersectionpoint feuillet;
drawarrow O--V;
drawarrow O--U;
pair E,F[];
numeric xE,yE;
xE:=2;
yE:=-1;
E=xE[O,I]+yE[O,J];
dotlabel.lrt(btex $M$ etex,E);
F1=projection(E,O,I);
F2=projection(E,O,J);
trace segment(E,F1) dashed evenly withpen pencircle scaled 1pt;
trace segment(E,F2) dashed evenly withpen pencircle scaled 1pt;
dotlabel.urt(btex $x_M$ etex,F1);
dotlabel.llft(btex $y_M$ etex,F2);
fin;
endfig;

input newcourbes;
input couleur;

u:=1cm;

beginfig(4);
repere(0,0,-2,8,-1,4,1cm,1cm);
r_axes;
r_origine;
r_unites;
r_labelxy;
quadu_xy(rouge);
r_pp(3,2);
r_proj(3,2,noir);
r_fin;
endfig;

end

