verbatimtex
%&latex
\documentclass{article}
\usepackage{amsmath}
\usepackage[T1]{fontenc}
\begin{document}
etex

input geometriesyr16;

beginfig(1);
figure(0,0,16u,7u);
trace grille(0.5) withcolor 0.5white;
drawarrow pp(1,0)--pp(1,14) withpen pencircle scaled 1pt;
drawarrow pp(0,1)--pp(32,1) withpen pencircle scaled 1pt;
for i=1 upto 31:
trace segment(pp(i,0.8),pp(i,1.2)) withpen pencircle scaled 1pt;
endfor
for i=1 upto 13:
trace segment(pp(0.8,i),pp(1.2,i)) withpen pencircle scaled 1pt;
endfor
label.llft(btex O etex,pp(1,1));
label.bot(btex 1 etex,pp(2,1));
label.lft(btex 1 etex,pp(1,2));
pair A,B,C,D;
A=pp(11,5);
B=pp(21,9);
C=pp(26,11);
marque_p:="croix";
pointe(A,B,C);
trace droite(A,B) withcolor rouge;
label.bot(btex 10 etex,pp(11,1));
label.bot(btex 20 etex,pp(21,1));
label.bot(btex 25 etex,pp(26,1));
label.lft(btex 4 etex,pp(1,5));
label.lft(btex 8 etex,pp(1,9));
label.lft(btex 10 etex,pp(1,11));
trace pp(11,1)--A--pp(1,5) dashed evenly withpen pencircle scaled 1pt;
trace pp(21,1)--B--pp(1,9) dashed evenly withpen pencircle scaled 1pt;
trace pp(26,1)--C--pp(1,11) dashed evenly withpen pencircle scaled 1pt;
label(btex Grandeur 1 etex,pp(29,2));
label(btex Grandeur 2 etex,pp(3,13));
fin;
endfig;

end