verbatimtex
%&latex
\documentclass{article}
%\usepackage{perso-thierry}
\usepackage{amsmath}
\usepackage[T1]{fontenc}
\begin{document}
etex


input newcourbes;
input couleur;
input geometriesyr16;

beginfig(1);
repere(0,0,-3,5,-2.5,3.8,1cm,1cm);
quadc_x(0.2,orange);
quadc_y(0.2,orange);
r_axes;
r_origine;
r_unites;
grad_x(1,1,noir);
grad_y(1,1,noir);
r_fin;
r_labelxy;
draw r_droite(0,0,0.6) withcolor bleu withpen pencircle scaled 1pt;
marque_p:="plein";
MarquePoint(r_p(0,0));
MarquePoint(r_p(3,1.8));
r_proj(3,1.8,noir);
endfig;

beginfig(2);
repere(0,0,-3,5,-4,1.5,1cm,1cm);
quadc_x(0.2,orange);
quadc_y(0.2,orange);
r_axes;
r_origine;
r_unites;
grad_x(1,1,noir);
grad_y(1,1,noir);
r_labelxy;
draw r_droite(0,0,-1.2) withcolor bleu withpen pencircle scaled 1pt;
marque_p:="plein";
MarquePoint(r_p(0,0));
MarquePoint(r_p(1,-1.2));
MarquePoint(r_p(2,-2.4));
MarquePoint(r_p(3,-3.6));
MarquePoint(r_p(-2.5,3));
MarquePoint(r_p(-1.5,1.8));
trace chemin(r_p(0,0),r_p(1,0),r_p(1,-1.2)) dashed evenly withpen pencircle scaled 1pt;
trace chemin(r_p(2,-2.4),r_p(3,-2.4),r_p(3,-3.6)) dashed evenly withpen pencircle scaled 1pt;
label(btex {\bf +1} etex,r_p(0.5,0.2));
label(btex $-${\bf 1,2} etex,r_p(1.4,-0.6));
label(btex {\bf +1} etex,r_p(2.5,-2.2));
label(btex $-${\bf 1,2} etex,r_p(3.4,-3));
trace chemin(r_p(-2.5,3),r_p(-1.5,3),r_p(-1.5,1.8)) dashed evenly withpen pencircle scaled 1pt;
label(btex {\bf +1} etex,r_p(-2,3.2));
label(btex $-${\bf 1,2} etex,r_p(-1.1,2.4));
r_fin;
endfig;

beginfig(3);
repere(0,0,-3,5,-3.3,3.3,1cm,1cm);
quadc_x(0.2,orange);
quadc_y(0.2,orange);
r_axes;
r_origine;
r_unites;
grad_x(1,1,noir);
grad_y(1,1,noir);
r_labelxy;
draw r_droite(0,0,0.75) withcolor bleu withpen pencircle scaled 1pt;
marque_p:="plein";
MarquePoint(r_p(-2,-1.5));
MarquePoint(r_p(4,3));
r_proj(-2,-1.5,noir);
r_proj(4,3,noir);
r_fin;
endfig;

