input geometriesyr16;

vardef tablettes(expr long,barres)=
  picture pic;
  pic=image(
larg:=0.3*max(long,barres);
figure(0,0,max(barres,long)*u,larg*u);
remplis polygone(u*(0,0),u*(barres,0),u*(barres,larg),u*(0,larg)) withcolor gris;
trace polygone(u*(0,0),u*(long,0),u*(long,larg),u*(0,larg));
for j=1 upto long-1:
	trace segment(u*(j,0),u*(j,larg));
	endfor;
if long-barres<0:
	for j=long upto barres-1:
	trace chemin(u*(j,0),u*(j+1,0),u*(j+1,larg),u*(j,larg)) dashed evenly;
	endfor
fi
fin;
    );
  pic
enddef;

vardef tablette(expr long,barres)=
  picture pic;
  pic=image(
figure(-0.2u,-0.2u,4.2u,1.4u);
if long-barres>0:
	remplis polygone(u*(0,0),u*(4*barres/long,0),u*(4*barres/long,1.2),u*(0,1.2)) withcolor gris;
	trace polygone(u*(0,0),u*(4,0),u*(4,1.2),u*(0,1.2)) withpen pencircle scaled 1.5bp;
	for j=1 upto long:
	trace segment(u*(4j/long,0),u*(4j/long,1.2));
	endfor;
else:
	remplis polygone(u*(0,0),u*(4,0),u*(4,1.2),u*(0,1.2)) withcolor gris;
	trace polygone(u*(0,0),u*(4*long/barres,0),u*(4*long/barres,1.2),u*(0,1.2)) withpen pencircle scaled 1.5bp;
	for j=1 upto long:
	trace segment(u*(4j/barres,0),u*(4j/barres,1.2));
	endfor
	for k=long upto barres-1:
	trace chemin(u*(4k/barres,0),u*(4(k+1)/barres,0),u*(4(k+1)/barres,1.2),u*(4k/barres,1.2)) dashed dashpattern (on1pt off1pt) ;
	endfor
fi
fin;
    );
  pic
enddef;

vardef tabletteb(expr long,barres)=
  picture pic;
  pic=image(
figure(-0.2u,-0.2u,4.2u,1.4u);
if long-barres>0:
	remplis polygone(u*(0,0),u*(4*barres/long,0),u*(4*barres/long,1.2),u*(0,1.2)) withcolor blanc;
	trace polygone(u*(0,0),u*(4,0),u*(4,1.2),u*(0,1.2)) withpen pencircle scaled 1.5bp;
	for j=1 upto long:
	trace segment(u*(4j/long,0),u*(4j/long,1.2));
	endfor;
else:
	remplis polygone(u*(0,0),u*(4,0),u*(4,1.2),u*(0,1.2)) withcolor blanc;
	trace polygone(u*(0,0),u*(4*long/barres,0),u*(4*long/barres,1.2),u*(0,1.2)) withpen pencircle scaled 1.5bp;
	for j=1 upto long:
	trace segment(u*(4j/barres,0),u*(4j/barres,1.2));
	endfor
	for k=long upto barres-1:
	trace chemin(u*(4k/barres,0),u*(4(k+1)/barres,0),u*(4(k+1)/barres,1.2),u*(4k/barres,1.2)) dashed dashpattern (on1pt off1pt) ;
	endfor
fi
fin;
    );
  pic
enddef;


pair A,B;
marque_p:="tiretv";

beginfig(1);
figure(0,0,7u,1u);
A=u*(0.5,0.5);
B-A=u*(6,0);
trace segment(A,B);
part:=3;
for k=0 upto part:
  pointe((k/part)[A,B]);
endfor;
pa:=0;
pf:=1;
trace segment((pa/part)[A,B],(pf/part)[A,B]) withpen pencircle scaled 2.5bp;
fin;
endfig;

beginfig(2);
figure(0,0,7u,1u);
trace segment(A,B);
part:=5;
for k=0 upto part:
  pointe((k/part)[A,B]);
endfor;
pa:=1;
pf:=4;
trace segment((pa/part)[A,B],(pf/part)[A,B]) withpen pencircle scaled 2.5bp;
fin;
endfig;

beginfig(3);
figure(0,0,7u,1u);
trace segment(A,B);
part:=10;
for k=0 upto part:
  pointe((k/part)[A,B]);
endfor;
pa:=4;
pf:=10;
trace segment((pa/part)[A,B],(pf/part)[A,B]) withpen pencircle scaled 2.5bp;
fin;
endfig;

beginfig(4);
figure(0,0,7u,1u);
trace segment(A,B);
part:=16;
for k=0 upto part:
  pointe((k/part)[A,B]);
endfor;
pa:=7;
pf:=12;
trace segment((pa/part)[A,B],(pf/part)[A,B]) withpen pencircle scaled 2.5bp;
fin;
endfig;

beginfig(5);
figure(0,0,7u,1u);
trace segment(A,B);
part:=6;
for k=0 upto part:
  pointe((k/part)[A,B]);
endfor;
pa:=1;
pf:=6;
trace segment((pa/part)[A,B],(pf/part)[A,B]) withpen pencircle scaled 2.5bp;
fin;
endfig;

beginfig(6);
figure(0,0,7u,1u);
trace segment(A,B);
part:=12;
for k=0 upto part:
  pointe((k/part)[A,B]);
endfor;
pa:=2;
pf:=9;
trace segment((pa/part)[A,B],(pf/part)[A,B]) withpen pencircle scaled 2.5bp;
fin;
endfig;


beginfig(7);
figure(0,0,7u,1u);
A=u*(0.5,0.5);
B-A=u*(6,0);
trace segment(A,B);
part:=3;
for k=0 upto part:
  pointe((k/part)[A,B]);
endfor;
fin;
endfig;

beginfig(8);
figure(0,0,7u,1u);
trace segment(A,B);
part:=5;
for k=0 upto part:
  pointe((k/part)[A,B]);
endfor;
fin;
endfig;

beginfig(9);
figure(0,0,7u,1u);
trace segment(A,B);
part:=10;
for k=0 upto part:
  pointe((k/part)[A,B]);
endfor;
fin;
endfig;

beginfig(10);
figure(0,0,7u,1u);
trace segment(A,B);
part:=16;
for k=0 upto part:
  pointe((k/part)[A,B]);
endfor;
fin;
endfig;

beginfig(11);
figure(0,0,7u,1u);
trace segment(A,B);
part:=6;
for k=0 upto part:
  pointe((k/part)[A,B]);
endfor;
fin;
endfig;

beginfig(12);
figure(0,0,7u,1u);
trace segment(A,B);
part:=12;
for k=0 upto part:
  pointe((k/part)[A,B]);
endfor;
fin;
endfig;

u:=0.7cm;

beginfig(13);
trace tablette(5,3);
endfig;

beginfig(14);
trace tablette(7,3);
endfig;

beginfig(15);
trace tablette(6,5);
endfig;

beginfig(16);
trace tablette(9,5);
endfig;

beginfig(17);
trace tablette(3,2);
endfig;

beginfig(18);
trace tablette(12,8);
endfig;

beginfig(19);
trace tablette(5,6);
endfig;

beginfig(20);
trace tablette(8,11);
endfig;

beginfig(21);
trace tablette(9,11);
endfig;

beginfig(22);
trace tabletteb(9,7);
endfig;

beginfig(23);
trace tabletteb(6,1);
endfig;

beginfig(24);
trace tabletteb(10,7);
endfig;

beginfig(25);
trace tabletteb(4,3);
endfig;

beginfig(26);
trace tabletteb(7,6);
endfig;

beginfig(27);
trace tabletteb(11,7);
endfig;

beginfig(28);
trace tabletteb(8,4);
endfig;

beginfig(29);
trace tabletteb(6,2);
endfig;

beginfig(30);
trace tabletteb(10,3);
endfig;

beginfig(31);
trace tabletteb(4,8);
endfig;

beginfig(32);
trace tabletteb(6,12);
endfig;

beginfig(33);
trace tabletteb(7,14);
endfig;