verbatimtex
%&latex
\documentclass{article}
\usepackage{amsmath}
\usepackage[T1]{fontenc}
\begin{document}
etex

input geometriesyr16;

beginfig(1);
figure(0,0,8u,5u);
trace grille(0.5) withcolor blanc;
pair A,B,C;
A=pp(1,3);
B=pp(5,9);
C=pp(15,1);
trace triangle(A,B,C);
trace cotationmil(A,B,10,2mm,btex 7 etex);
trace cotationmil(B,C,10,2mm,btex 11 etex);
trace cotationmil(A,C,-10,2mm,btex $x$ etex);
fin;
endfig;

beginfig(2);
figure(0,0,8u,5u);
trace grille(0.5) withcolor blanc;
pair A,B,C,D;
A=pp(1,2);
B=pp(15,2);
C=pp(15,8);
D=pp(1,8);
trace polygone(A,B,C,D);
trace cotationmil(A,B,-10,2mm,btex 7 etex);
trace cotationmil(B,C,-10,2mm,btex $a$ etex);
fin;
endfig;

beginfig(3);
figure(0,0,8u,5u);
trace grille(0.5) withcolor blanc;
pair A,B,C;
A=pp(8,5);
marque_p:="croix";
pointe(A);
path cc;
cc=cercles(A,2.3cm);
trace cc;
B=pointarc(cc,30);
C=symetrie(B,A);
trace segment(B,C) dashed evenly;
trace cotation(C,B,2mm,3mm,btex $d$ etex);
fin;
endfig;

beginfig(4);
figure(0,u,8u,5u);
trace grille(0.5) withcolor blanc;
pair A,B,C;
A=pp(8,2);
marque_p:="croix";
pointe(A);
path cc;
cc=cercles(A,3.5cm);
B=pointarc(cc,0);
C=symetrie(B,A);
trace arccercle(B,C,A);
trace segment(B,C);
trace cotation(A,B,2mm,3mm,btex $r$ etex);
fin;
endfig;

beginfig(5);
figure(0,0,8u,5u);
trace grille(0.5) withcolor blanc;
pair A,B,C,D;
A=pp(2,2);
B=pp(14,2);
C=pp(14,8);
D=pp(2,8);
trace polygone(A,B,C,D);
trace cotationmil(A,B,-10,2mm,btex $L$ etex);
trace cotationmil(B,C,-10,5mm,btex $L-2$ etex);
fin;
endfig;

beginfig(6);
figure(0,0,8u,5u);
trace grille(0.5) withcolor blanc;
pair A,B,C,D;
A=pp(1.5,1.5);
B=pp(15.5,1.5);
C=pp(1.5,9.5);
trace polygone(A,B,C);
trace cotationmil(A,B,-10,2mm,btex $a$ etex);
trace cotationmil(A,C,10,5mm,btex 8 etex);
fin;
endfig;

beginfig(7);
figure(0,0,8u,5u);
trace grille(0.5) withcolor blanc;
pair A,B,C,D;
A=pp(4,1);
B=pp(12,1);
C=pp(12,9);
D=pp(4,9);
trace polygone(A,B,C,D);
trace cotationmil(A,B,-10,2mm,btex $c$ etex);
trace cotationmil(B,C,-10,2mm,btex $c$ etex);
fin;
endfig;

beginfig(8);
figure(0,0,8u,5u);
trace grille(0.5) withcolor blanc;
pair A,B,C,D,E,F;
A=pp(1,1);
B=pp(15,1);
C=pp(15,6);
D=pp(12,6);
E=pp(12,9);
F=pp(1,9);
trace polygone(A,B,C,D,E,F);
trace cotationmil(A,B,-10,2mm,btex 10 etex);
trace cotationmil(A,F,10,2mm,btex 7 etex);
trace cotationmil(D,C,-5,2mm,btex $y$ etex);
trace cotationmil(D,E,5,2mm,btex $y$ etex);
fin;
endfig;