%!PS-Adobe-3.0 EPSF-3.0
%%Creator: EpsGraphics2D 0.9.0 by Paul Mutton, http://www.jibble.org/
%%Title: GeoGebra, http://www.geogebra.at
%%CreationDate: Sun Dec 11 14:58:35 CET 2005
%%BoundingBox: 0 0 205 187
%%DocumentData: Clean7Bit
%%DocumentProcessColors: Black
%%ColorUsage: Color
%%Origin: 0 0
%%Pages: 1
%%Page: 1 1
%%EndComments

gsave
-0.0 187.0 translate
1.0 setlinewidth
10.0 setmiterlimit
0 setlinejoin
2 setlinecap
[ ] 0 setdash
gsave
newpath
0.0 -0.0 moveto
205.6063 -0.0 lineto
205.6063 -187.08661 lineto
0.0 -187.08661 lineto
0.0 -0.0 lineto
closepath
clip
newpath
1.0 1.0 1.0 setrgbcolor
newpath
0.0 -0.0 moveto
205.6063 -0.0 lineto
205.6063 -187.08661 lineto
0.0 -187.08661 lineto
0.0 -0.0 lineto
closepath
fill
newpath
0.0 0.0 0.0 setrgbcolor
1.0 setlinewidth
10.0 setmiterlimit
1 setlinejoin
0 setlinecap
[ 1.0 3.0 ] 0 setdash
newpath
0.0 -159.77953 moveto
205.6063 -159.77953 lineto
stroke
newpath
0.0 0.0 0.0 setrgbcolor
1.0 setlinewidth
10.0 setmiterlimit
1 setlinejoin
0 setlinecap
[ 1.0 3.0 ] 0 setdash
newpath
102.99213 -18.047245 moveto
102.99213 -159.77953 lineto
stroke
newpath
0.0 0.0 0.0 setrgbcolor
0.5 setlinewidth
10.0 setmiterlimit
1 setlinejoin
1 setlinecap
[ ] 0 setdash
newpath
102.99213 -32.220474 moveto
41.212456 -159.77953 lineto
stroke
newpath
0.0 0.0 0.0 setrgbcolor
0.5 setlinewidth
10.0 setmiterlimit
1 setlinejoin
1 setlinecap
[ ] 0 setdash
newpath
102.99213 -32.220474 moveto
164.77179 -159.77953 lineto
stroke
newpath
0.0 0.0 1.0 setrgbcolor
newpath
104.125984 -18.047245 moveto
104.125984 -18.673456 103.61834 -19.181103 102.99213 -19.181103 curveto
102.36591 -19.181103 101.85827 -18.673456 101.85827 -18.047245 curveto
101.85827 -17.421032 102.36591 -16.913385 102.99213 -16.913385 curveto
103.61834 -16.913385 104.125984 -17.421032 104.125984 -18.047245 curveto
closepath
fill
newpath
0.0 0.0 0.0 setrgbcolor
1.0 setlinewidth
10.0 setmiterlimit
1 setlinejoin
1 setlinecap
[ ] 0 setdash
newpath
104.125984 -18.047245 moveto
104.125984 -18.673456 103.61834 -19.181103 102.99213 -19.181103 curveto
102.36591 -19.181103 101.85827 -18.673456 101.85827 -18.047245 curveto
101.85827 -17.421032 102.36591 -16.913385 102.99213 -16.913385 curveto
103.61834 -16.913385 104.125984 -17.421032 104.125984 -18.047245 curveto
closepath
stroke
newpath
0.49019608 0.49019608 1.0 setrgbcolor
newpath
104.125984 -159.77953 moveto
104.125984 -160.40575 103.61834 -160.91339 102.99213 -160.91339 curveto
102.36591 -160.91339 101.85827 -160.40575 101.85827 -159.77953 curveto
101.85827 -159.1533 102.36591 -158.64568 102.99213 -158.64568 curveto
103.61834 -158.64568 104.125984 -159.1533 104.125984 -159.77953 curveto
closepath
fill
newpath
0.0 0.0 0.0 setrgbcolor
1.0 setlinewidth
10.0 setmiterlimit
1 setlinejoin
1 setlinecap
[ ] 0 setdash
newpath
104.125984 -159.77953 moveto
104.125984 -160.40575 103.61834 -160.91339 102.99213 -160.91339 curveto
102.36591 -160.91339 101.85827 -160.40575 101.85827 -159.77953 curveto
101.85827 -159.1533 102.36591 -158.64568 102.99213 -158.64568 curveto
103.61834 -158.64568 104.125984 -159.1533 104.125984 -159.77953 curveto
closepath
stroke
newpath
0.0 0.0 0.0 setrgbcolor
newpath
104.125984 -32.220474 moveto
104.125984 -32.846684 103.61834 -33.354332 102.99213 -33.354332 curveto
102.36591 -33.354332 101.85827 -32.846684 101.85827 -32.220474 curveto
101.85827 -31.594261 102.36591 -31.086615 102.99213 -31.086615 curveto
103.61834 -31.086615 104.125984 -31.594261 104.125984 -32.220474 curveto
closepath
fill
newpath
0.0 0.0 0.0 setrgbcolor
1.0 setlinewidth
10.0 setmiterlimit
1 setlinejoin
1 setlinecap
[ ] 0 setdash
newpath
104.125984 -32.220474 moveto
104.125984 -32.846684 103.61834 -33.354332 102.99213 -33.354332 curveto
102.36591 -33.354332 101.85827 -32.846684 101.85827 -32.220474 curveto
101.85827 -31.594261 102.36591 -31.086615 102.99213 -31.086615 curveto
103.61834 -31.086615 104.125984 -31.594261 104.125984 -32.220474 curveto
closepath
stroke
newpath
0.0 0.0 0.0 setrgbcolor
newpath
105.05315 -29.858267 moveto
105.05315 -26.610237 lineto
107.39764 -26.610237 lineto
107.39764 -26.994095 lineto
105.48425 -26.994095 lineto
105.48425 -27.986221 lineto
107.279526 -27.986221 lineto
107.279526 -28.370079 lineto
105.48425 -28.370079 lineto
105.48425 -29.47441 lineto
107.47441 -29.47441 lineto
107.47441 -29.858267 lineto
105.05315 -29.858267 lineto
closepath
fill
newpath
0.2509804 0.2509804 0.2509804 setrgbcolor
newpath
42.346313 -159.77953 moveto
42.346313 -160.40575 41.83867 -160.91339 41.212456 -160.91339 curveto
40.586243 -160.91339 40.078598 -160.40575 40.078598 -159.77953 curveto
40.078598 -159.1533 40.586243 -158.64568 41.212456 -158.64568 curveto
41.83867 -158.64568 42.346313 -159.1533 42.346313 -159.77953 curveto
closepath
fill
newpath
0.0 0.0 0.0 setrgbcolor
1.0 setlinewidth
10.0 setmiterlimit
1 setlinejoin
1 setlinecap
[ ] 0 setdash
newpath
42.346313 -159.77953 moveto
42.346313 -160.40575 41.83867 -160.91339 41.212456 -160.91339 curveto
40.586243 -160.91339 40.078598 -160.40575 40.078598 -159.77953 curveto
40.078598 -159.1533 40.586243 -158.64568 41.212456 -158.64568 curveto
41.83867 -158.64568 42.346313 -159.1533 42.346313 -159.77953 curveto
closepath
stroke
newpath
0.2509804 0.2509804 0.2509804 setrgbcolor
newpath
38.545277 -157.22835 moveto
38.545277 -153.98032 lineto
40.73622 -153.98032 lineto
40.73622 -154.36417 lineto
38.97638 -154.36417 lineto
38.97638 -155.3681 lineto
40.5 -155.3681 lineto
40.5 -155.75197 lineto
38.97638 -155.75197 lineto
38.97638 -157.22835 lineto
38.545277 -157.22835 lineto
closepath
fill
newpath
0.2509804 0.2509804 0.2509804 setrgbcolor
newpath
165.90565 -159.77953 moveto
165.90565 -160.40575 165.39801 -160.91339 164.77179 -160.91339 curveto
164.14558 -160.91339 163.63794 -160.40575 163.63794 -159.77953 curveto
163.63794 -159.1533 164.14558 -158.64568 164.77179 -158.64568 curveto
165.39801 -158.64568 165.90565 -159.1533 165.90565 -159.77953 curveto
closepath
fill
newpath
0.0 0.0 0.0 setrgbcolor
1.0 setlinewidth
10.0 setmiterlimit
1 setlinejoin
1 setlinecap
[ ] 0 setdash
newpath
165.90565 -159.77953 moveto
165.90565 -160.40575 165.39801 -160.91339 164.77179 -160.91339 curveto
164.14558 -160.91339 163.63794 -160.40575 163.63794 -159.77953 curveto
163.63794 -159.1533 164.14558 -158.64568 164.77179 -158.64568 curveto
165.39801 -158.64568 165.90565 -159.1533 165.90565 -159.77953 curveto
closepath
stroke
newpath
0.2509804 0.2509804 0.2509804 setrgbcolor
newpath
168.17126 -156.3307 moveto
168.17126 -155.95276 lineto
169.54134 -155.94685 lineto
169.54134 -157.15158 lineto
169.33267 -157.32088 169.11615 -157.44785 168.89174 -157.53249 curveto
168.66733 -157.61713 168.43701 -157.65945 168.20079 -157.65945 curveto
167.8819 -157.65945 167.59154 -157.59154 167.32973 -157.4557 curveto
167.06792 -157.31989 166.87106 -157.12303 166.73917 -156.86516 curveto
166.60728 -156.60728 166.54134 -156.3189 166.54134 -156.0 curveto
166.54134 -155.6811 166.60728 -155.38484 166.73917 -155.11122 curveto
166.87106 -154.8376 167.06102 -154.63484 167.30905 -154.50296 curveto
167.55708 -154.37106 167.84253 -154.30511 168.16536 -154.30511 curveto
168.40158 -154.30511 168.61417 -154.34251 168.80315 -154.41733 curveto
168.99213 -154.49213 169.14075 -154.59744 169.24901 -154.73326 curveto
169.35728 -154.8691 169.43898 -155.04724 169.4941 -155.26772 curveto
169.11023 -155.37401 lineto
169.05905 -155.20866 168.99704 -155.07875 168.92421 -154.98425 curveto
168.85138 -154.88976 168.74803 -154.81398 168.61417 -154.7569 curveto
168.48032 -154.69981 168.33269 -154.67126 168.17126 -154.67126 curveto
167.97441 -154.67126 167.80414 -154.70079 167.66043 -154.75984 curveto
167.51674 -154.8189 167.40059 -154.89763 167.31201 -154.99606 curveto
167.22343 -155.0945 167.15552 -155.20276 167.10826 -155.32086 curveto
167.02559 -155.52165 166.98425 -155.73819 166.98425 -155.97047 curveto
166.98425 -156.26181 167.03445 -156.50493 167.13484 -156.6998 curveto
167.23523 -156.89468 167.37991 -157.03937 167.5689 -157.13387 curveto
167.75787 -157.22835 167.96063 -157.27559 168.17717 -157.27559 curveto
168.36221 -157.27559 168.5433 -157.23917 168.72047 -157.16634 curveto
168.89764 -157.0935 169.0315 -157.01772 169.12204 -156.93898 curveto
169.12204 -156.3307 lineto
168.17126 -156.3307 lineto
closepath
fill
newpath
0.0 0.0 0.0 setrgbcolor
newpath
138.25615 -94.48819 moveto
137.86049 -94.48819 lineto
137.86049 -91.94882 lineto
137.76205 -92.039375 137.63509 -92.130905 137.47958 -92.22343 curveto
137.32407 -92.31595 137.18529 -92.38386 137.06323 -92.42716 curveto
137.06323 -92.043304 lineto
137.2837 -91.937004 137.47762 -91.810036 137.64493 -91.6624 curveto
137.81226 -91.51476 137.93135 -91.37008 138.00221 -91.22835 curveto
138.25615 -91.22835 lineto
138.25615 -94.48819 lineto
closepath
139.27855 -92.887794 moveto
139.27855 -92.50197 139.31792 -92.191925 139.39665 -91.95768 curveto
139.4754 -91.72343 139.59253 -91.543304 139.74803 -91.41732 curveto
139.90353 -91.291336 140.09941 -91.22835 140.33563 -91.22835 curveto
140.50887 -91.22835 140.66142 -91.26378 140.7933 -91.33465 curveto
140.92519 -91.40552 141.03444 -91.50689 141.12106 -91.63878 curveto
141.20769 -91.77067 141.27461 -91.93111 141.32185 -92.12008 curveto
141.3691 -92.30905 141.39272 -92.56496 141.39272 -92.887794 curveto
141.39272 -93.269684 141.35432 -93.576775 141.27756 -93.80905 curveto
141.20079 -94.041336 141.08464 -94.22146 140.92914 -94.34941 curveto
140.77362 -94.47736 140.57579 -94.541336 140.33563 -94.541336 curveto
140.02461 -94.541336 139.77855 -94.42913 139.59744 -94.20473 curveto
139.38484 -93.937004 139.27855 -93.49803 139.27855 -92.887794 curveto
closepath
139.68602 -92.887794 moveto
139.68602 -93.41929 139.74901 -93.77362 139.875 -93.95079 curveto
140.00099 -94.12795 140.15453 -94.21654 140.33563 -94.21654 curveto
140.52068 -94.21654 140.6752 -94.12795 140.79921 -93.95079 curveto
140.92322 -93.77362 140.98523 -93.41929 140.98523 -92.887794 curveto
140.98523 -92.35236 140.92322 -91.99705 140.79921 -91.82185 curveto
140.6752 -91.64665 140.5187 -91.55905 140.32973 -91.55905 curveto
140.14862 -91.55905 140.00296 -91.635826 139.89272 -91.78937 curveto
139.75491 -91.98622 139.68602 -92.35236 139.68602 -92.887794 curveto
closepath
144.70866 -93.625984 moveto
145.09842 -93.67913 lineto
145.05511 -93.94685 144.94489 -94.15748 144.76772 -94.31102 curveto
144.59055 -94.46456 144.37401 -94.541336 144.1181 -94.541336 curveto
143.79527 -94.541336 143.53642 -94.43602 143.34154 -94.225395 curveto
143.14665 -94.01476 143.04921 -93.7126 143.04921 -93.3189 curveto
143.04921 -93.06693 143.09154 -92.845474 143.17618 -92.654526 curveto
143.26082 -92.463585 143.38878 -92.32087 143.56004 -92.22638 curveto
143.7313 -92.13189 143.91928 -92.08465 144.12401 -92.08465 curveto
144.37598 -92.08465 144.58366 -92.14862 144.74704 -92.27657 curveto
144.91043 -92.404526 145.01575 -92.588585 145.06299 -92.82874 curveto
144.67323 -92.887794 lineto
144.63779 -92.730316 144.57283 -92.61122 144.47835 -92.53051 curveto
144.38385 -92.4498 144.26968 -92.40945 144.13583 -92.40945 curveto
143.93504 -92.40945 143.77165 -92.4813 143.64568 -92.625 curveto
143.51968 -92.7687 143.4567 -92.99606 143.4567 -93.30708 curveto
143.4567 -93.625984 143.51772 -93.8563 143.63977 -93.99803 curveto
143.76181 -94.13976 143.91928 -94.21063 144.1122 -94.21063 curveto
144.26968 -94.21063 144.40059 -94.16339 144.50493 -94.0689 curveto
144.60925 -93.97441 144.67717 -93.82677 144.70866 -93.625984 curveto
closepath
145.44095 -94.48819 moveto
145.44095 -92.137794 lineto
145.79527 -92.137794 lineto
145.79527 -92.468506 lineto
145.87009 -92.350395 145.9685 -92.25689 146.09055 -92.187996 curveto
146.2126 -92.119095 146.35236 -92.08465 146.50984 -92.08465 curveto
146.68307 -92.08465 146.82579 -92.12008 146.93799 -92.19095 curveto
147.05019 -92.26181 147.12794 -92.362206 147.17126 -92.49213 curveto
147.36024 -92.220474 147.60237 -92.08465 147.89764 -92.08465 curveto
148.13387 -92.08465 148.31398 -92.14862 148.43799 -92.27657 curveto
148.562 -92.404526 148.62401 -92.60433 148.62401 -92.875984 curveto
148.62401 -94.48819 lineto
148.22835 -94.48819 lineto
148.22835 -93.005905 lineto
148.22835 -92.84843 148.21555 -92.73425 148.18996 -92.66338 curveto
148.16437 -92.592514 148.11812 -92.53543 148.05118 -92.49213 curveto
147.98425 -92.448814 147.90355 -92.42716 147.80905 -92.42716 curveto
147.64369 -92.42716 147.50688 -92.482285 147.39862 -92.59252 curveto
147.29036 -92.70276 147.23622 -92.87992 147.23622 -93.124016 curveto
147.23622 -94.48819 lineto
146.83464 -94.48819 lineto
146.83464 -92.958664 lineto
146.83464 -92.7815 146.80215 -92.64862 146.7372 -92.560036 curveto
146.67224 -92.47145 146.56694 -92.42716 146.42126 -92.42716 curveto
146.30708 -92.42716 146.20276 -92.45669 146.10826 -92.51575 curveto
146.01378 -92.57481 145.94489 -92.661415 145.90158 -92.77559 curveto
145.85826 -92.88976 145.83661 -93.053154 145.83661 -93.26575 curveto
145.83661 -94.48819 lineto
145.44095 -94.48819 lineto
closepath
fill
newpath
0.0 0.0 0.0 setrgbcolor
newpath
58.38189 -94.11024 moveto
57.98622 -94.11024 lineto
57.98622 -91.57087 lineto
57.887794 -91.66142 57.760826 -91.75295 57.605316 -91.845474 curveto
57.449802 -91.937996 57.311024 -92.005905 57.188976 -92.04921 curveto
57.188976 -91.66535 lineto
57.409447 -91.55905 57.603344 -91.43208 57.770668 -91.28445 curveto
57.937992 -91.13681 58.057087 -90.99213 58.127953 -90.850395 curveto
58.38189 -90.850395 lineto
58.38189 -94.11024 lineto
closepath
59.40428 -92.50984 moveto
59.40428 -92.124016 59.443653 -91.81397 59.522392 -91.57973 curveto
59.60113 -91.345474 59.718258 -91.16535 59.873768 -91.03937 curveto
60.02928 -90.91338 60.225147 -90.850395 60.46137 -90.850395 curveto
60.634598 -90.850395 60.787155 -90.885826 60.919044 -90.956696 curveto
61.050934 -91.027565 61.160187 -91.12894 61.2468 -91.260826 curveto
61.333416 -91.392715 61.400345 -91.553154 61.44759 -91.74213 curveto
61.494835 -91.9311 61.518456 -92.187004 61.518456 -92.50984 curveto
61.518456 -92.89173 61.48007 -93.19882 61.403297 -93.4311 curveto
61.326527 -93.66338 61.210384 -93.843506 61.05487 -93.97146 curveto
60.89936 -94.09941 60.701527 -94.16338 60.46137 -94.16338 curveto
60.150345 -94.16338 59.90428 -94.05118 59.72318 -93.826775 curveto
59.510582 -93.55905 59.40428 -93.12008 59.40428 -92.50984 curveto
closepath
59.81176 -92.50984 moveto
59.81176 -93.041336 59.874752 -93.39567 60.00074 -93.57284 curveto
60.126724 -93.75 60.280266 -93.838585 60.46137 -93.838585 curveto
60.646408 -93.838585 60.800934 -93.75 60.92495 -93.57284 curveto
61.048965 -93.39567 61.110973 -93.041336 61.110973 -92.50984 curveto
61.110973 -91.97441 61.048965 -91.619095 60.92495 -91.4439 curveto
60.800934 -91.2687 60.64444 -91.1811 60.455463 -91.1811 curveto
60.27436 -91.1811 60.12869 -91.25787 60.018456 -91.411415 curveto
59.880657 -91.60827 59.81176 -91.97441 59.81176 -92.50984 curveto
closepath
64.8344 -93.24803 moveto
65.22417 -93.30118 lineto
65.180855 -93.5689 65.07062 -93.779526 64.893456 -93.93307 curveto
64.71629 -94.08661 64.499756 -94.16338 64.24385 -94.16338 curveto
63.921017 -94.16338 63.662155 -94.05807 63.467274 -93.84744 curveto
63.272392 -93.63681 63.17495 -93.33465 63.17495 -92.94095 curveto
63.17495 -92.68898 63.217274 -92.46752 63.301918 -92.27657 curveto
63.386562 -92.08563 63.514515 -91.94292 63.685776 -91.84843 curveto
63.857037 -91.75394 64.04503 -91.706696 64.249756 -91.706696 curveto
64.501724 -91.706696 64.709404 -91.77067 64.87279 -91.89862 curveto
65.03617 -92.02657 65.14149 -92.21063 65.18873 -92.45079 curveto
64.798965 -92.50984 lineto
64.763535 -92.35236 64.69858 -92.23327 64.60409 -92.15256 curveto
64.5096 -92.071846 64.395424 -92.031494 64.261566 -92.031494 curveto
64.060776 -92.031494 63.897392 -92.10335 63.771408 -92.24705 curveto
63.645424 -92.39075 63.58243 -92.61811 63.58243 -92.92913 curveto
63.58243 -93.24803 63.643456 -93.47835 63.765503 -93.62008 curveto
63.88755 -93.76181 64.04503 -93.83268 64.237946 -93.83268 curveto
64.395424 -93.83268 64.52633 -93.78544 64.63066 -93.69095 curveto
64.73499 -93.59646 64.8029 -93.448814 64.8344 -93.24803 curveto
closepath
65.56668 -94.11024 moveto
65.56668 -91.75984 lineto
65.92101 -91.75984 lineto
65.92101 -92.09055 lineto
65.99582 -91.97244 66.09424 -91.87894 66.216286 -91.810036 curveto
66.33833 -91.74114 66.4781 -91.706696 66.63558 -91.706696 curveto
66.80881 -91.706696 66.95152 -91.74213 67.06373 -91.812996 curveto
67.175934 -91.88386 67.25369 -91.98425 67.297 -92.114174 curveto
67.48597 -91.84252 67.728096 -91.706696 68.02338 -91.706696 curveto
68.2596 -91.706696 68.43971 -91.77067 68.56373 -91.89862 curveto
68.687744 -92.02657 68.749756 -92.22638 68.749756 -92.49803 curveto
68.749756 -94.11024 lineto
68.35409 -94.11024 lineto
68.35409 -92.62795 lineto
68.35409 -92.470474 68.34129 -92.3563 68.3157 -92.28543 curveto
68.29011 -92.21456 68.24385 -92.15748 68.17692 -92.114174 curveto
68.109985 -92.07086 68.02928 -92.04921 67.93479 -92.04921 curveto
67.76944 -92.04921 67.63263 -92.10433 67.52436 -92.21457 curveto
67.41609 -92.32481 67.36196 -92.50197 67.36196 -92.74606 curveto
67.36196 -94.11024 lineto
66.96038 -94.11024 lineto
66.96038 -92.58071 lineto
66.96038 -92.40355 66.9279 -92.27067 66.862946 -92.18208 curveto
66.79798 -92.0935 66.692665 -92.04921 66.547 -92.04921 curveto
66.43282 -92.04921 66.3285 -92.078735 66.23401 -92.137794 curveto
66.13952 -92.19685 66.07062 -92.28346 66.02731 -92.39764 curveto
65.984 -92.51181 65.96235 -92.6752 65.96235 -92.887794 curveto
65.96235 -94.11024 lineto
65.56668 -94.11024 lineto
closepath
fill
newpath
grestore
grestore
showpage

%%EOF