verbatimtex
%&latex
\documentclass{article}
\usepackage{amsmath}
\usepackage[T1]{fontenc}
\begin{document}
etex

input geometriesyr16;

beginfig(1);
figure(0,0,8.5u,5u);
trace feuillet withcolor blanc;
pair A,B,O;
O=u*(4,2.5);
A=u*(1,4.5);
B=u*(7,4);
marque_p:="croix";
pointe(O);
nomme.lft(O);
pointe(A);
nomme.lft(A);
pointe(B);
nomme.rt(B);
trace segment(A,B);
fin;
endfig;

beginfig(2);
figure(0,0,8.5u,5u);
trace feuillet withcolor blanc;
pair A,B,O;
O=u*(4,2.8);
A=u*(0.5,4.5);
B=u*(2,1);
marque_p:="croix";
pointe(O);
nomme.lft(O);
pointe(A);
nomme.lft(A);
pointe(B);
nomme.rt(B);
trace segment(A,B);
fin;
endfig;

beginfig(3);
figure(0,0,8.5u,5u);
trace feuillet withcolor blanc;
pair A,B,O;
A=u*(0.5,0.7);
B=u*(3,1.9);
O=1.4[A,B];
marque_p:="croix";
pointe(O);
nomme.ulft(O);
pointe(A);
nomme.lft(A);
pointe(B);
nomme.rt(B);
trace segment(A,B);
fin;
endfig;

beginfig(4);
figure(0,0,8.5u,5u);
trace feuillet withcolor blanc;
pair A,B,O;
A=u*(1,4.5);
B=u*(4,2.5);
O=0.8[A,B];
marque_p:="croix";
pointe(O);
nomme.lft(O);
pointe(A);
nomme.lft(A);
pointe(B);
nomme.rt(B);
trace segment(A,B);
fin;
endfig;

beginfig(5);
figure(0,0,8.5u,5u);
trace feuillet withcolor blanc;
pair A,B,O;
O=u*(4,2.5);
A=u*(1,4.5);
B=u*(7,4);
marque_p:="croix";
pointe(O);
nomme.lft(O);
trace droite(A,B);
pointe(A);
nomme.llft(A);
pointe(B);
nomme.lrt(B);
label.top(btex (d) etex,milieu(A,B));
fin;
endfig;

beginfig(6);
figure(0,0,8.5u,5u);
trace feuillet withcolor blanc;
pair A,B,O;
O=u*(4,2.8);
A=u*(2.8,4.5);
B=u*(1,1);
marque_p:="croix";
pointe(O);
nomme.lft(O);
pointe(A);
nomme.lft(A);
trace droite(A,B);
label.ulft(btex (d) etex,B);
fin;
endfig;

beginfig(7);
figure(0,0,8.5u,5u);
trace feuillet withcolor blanc;
pair A,B,O;
O=u*(5,2.8);
A=u*(2.8,3.5);
B=u*(7,4);
marque_p:="croix";
pointe(O);
nomme.lft(O);
trace droite(A,B);
label.ulft(btex (d) etex,milieu(A,B));
fin;
endfig;

beginfig(8);
figure(0,0,8.5u,5u);
trace feuillet withcolor blanc;
pair A,B,O;
O=u*(4,2.5);
A=u*(1,4.5);
B=u*(4,2.5);
marque_p:="croix";
pointe(O);
nomme.lft(O);
trace droite(A,B);
label.top(btex (d) etex,milieu(A,B));
fin;
endfig;